week 2/csv_files/part_2/2 - 7220 ohm.csv

Record Length,2500,Points,17.6880006E-3,12.8127995,,Record Length,2500,Points,17.6880006E-3,12.4000006,
Sample Interval,400.00000467E-9,s,17.6884010E-3,12.6335993,,Sample Interval,400.00000467E-9,s,17.6884010E-3,12.6000004,
Trigger Point,-44.22000302E3,Samples,17.6887996E-3,12.9023991,,Trigger Point,-44.22000302E3,Samples,17.6887996E-3,12.6000004,
,,,17.6892001E-3,12.8127995,,,,,17.6892001E-3,12.6000004,
,,,17.6896006E-3,12.7231998,,,,,17.6896006E-3,12.8000002,
,,,17.6900011E-3,12.9023991,,,,,17.6900011E-3,12.6000004,
Source,CH1,,17.6903997E-3,12.7231998,,Source,CH2,,17.6903997E-3,12.6000004,
Vertical Units,Volts,,17.6908001E-3,12.9919996,,Vertical Units,Volts,,17.6908001E-3,12.8000002,
Vertical Scale,2.2399999,,17.6912006E-3,12.6335993,,Vertical Scale,5.00000007,,17.6912006E-3,12.4000006,
Vertical Offset,0,,17.6916011E-3,12.7231998,,Vertical Offset,0,,17.6916011E-3,12.6000004,
Horizontal Units,s,,17.6919997E-3,12.6335993,,Horizontal Units,s,,17.6919997E-3,12.8000002,
Horizontal Scale,100.0000012E-6,,17.6924001E-3,12.7231998,,Horizontal Scale,100.0000012E-6,,17.6924001E-3,12.8000002,
Pt Fmt,Y,,17.6928006E-3,12.9919996,,Pt Fmt,Y,,17.6928006E-3,12.6000004,
Yzero,-2.6400000,,17.6932011E-3,12.7231998,,Yzero,-1.3600000,,17.6932011E-3,12.8000002,
Probe Atten,1.000000,,17.6935997E-3,12.8127995,,Probe Atten,1.000000,,17.6935997E-3,12.6000004,
,,,17.6940002E-3,12.7231998,,,,,17.6940002E-3,12.6000004,
Note,TDS 2012C - 11:21:33   22/05/2022,,17.6944006E-3,12.8127995,,Note,TDS 2012C - 11:21:33   22/05/2022,,17.6944006E-3,12.6000004,
,,,17.6948011E-3,12.5439997,,,,,17.6948011E-3,12.4000006,
,,,17.6951997E-3,12.7231998,,,,,17.6951997E-3,12.6000004,
,,,17.6956002E-3,12.9023991,,,,,17.6956002E-3,12.6000004,
,,,17.6960006E-3,12.9919996,,,,,17.6960006E-3,12.6000004,
,,,17.6964011E-3,12.7231998,,,,,17.6964011E-3,12.6000004,
,,,17.6967997E-3,12.6335993,,,,,17.6967997E-3,12.6000004,
,,,17.6972002E-3,12.9919996,,,,,17.6972002E-3,12.8000002,
,,,17.6976006E-3,13.0815992,,,,,17.6976006E-3,12.6000004,
,,,17.6980011E-3,12.7231998,,,,,17.6980011E-3,12.4000006,
,,,17.6983997E-3,12.6335993,,,,,17.6983997E-3,12.6000004,
,,,17.6988002E-3,12.8127995,,,,,17.6988002E-3,12.6000004,
,,,17.6992007E-3,12.8127995,,,,,17.6992007E-3,12.4000006,
,,,17.6996011E-3,12.8127995,,,,,17.6996011E-3,12.6000004,
,,,17.6999997E-3,12.8127995,,,,,17.6999997E-3,12.6000004,
,,,17.7004002E-3,12.6335993,,,,,17.7004002E-3,12.6000004,
,,,17.7008007E-3,12.9023991,,,,,17.7008007E-3,12.6000004,
,,,17.7012011E-3,12.9919996,,,,,17.7012011E-3,12.6000004,
,,,17.7015997E-3,12.8127995,,,,,17.7015997E-3,12.6000004,
,,,17.7020002E-3,12.8127995,,,,,17.7020002E-3,12.4000006,
,,,17.7024007E-3,12.8127995,,,,,17.7024007E-3,12.6000004,
,,,17.7028012E-3,12.8127995,,,,,17.7028012E-3,12.6000004,
,,,17.7031998E-3,12.6335993,,,,,17.7031998E-3,12.6000004,
,,,17.7036002E-3,12.8127995,,,,,17.7036002E-3,12.4000006,
,,,17.7040007E-3,12.9023991,,,,,17.7040007E-3,12.4000006,
,,,17.7044012E-3,12.9023991,,,,,17.7044012E-3,12.6000004,
,,,17.7047998E-3,12.6335993,,,,,17.7047998E-3,12.6000004,
,,,17.7052002E-3,12.8127995,,,,,17.7052002E-3,12.8000002,
,,,17.7056007E-3,12.7231998,,,,,17.7056007E-3,12.8000002,
,,,17.7060012E-3,12.8127995,,,,,17.7060012E-3,12.6000004,
,,,17.7063998E-3,12.9023991,,,,,17.7063998E-3,12.6000004,
,,,17.7068003E-3,12.8127995,,,,,17.7068003E-3,12.8000002,
,,,17.7072007E-3,12.8127995,,,,,17.7072007E-3,12.6000004,
,,,17.7076012E-3,12.9919996,,,,,17.7076012E-3,12.6000004,
,,,17.7079998E-3,12.9919996,,,,,17.7079998E-3,12.6000004,
,,,17.7084003E-3,12.8127995,,,,,17.7084003E-3,12.6000004,
,,,17.7088007E-3,12.8127995,,,,,17.7088007E-3,12.6000004,
,,,17.7092012E-3,12.8127995,,,,,17.7092012E-3,12.6000004,
,,,17.7095998E-3,12.9919996,,,,,17.7095998E-3,12.6000004,
,,,17.7100003E-3,12.7231998,,,,,17.7100003E-3,12.6000004,
,,,17.7104007E-3,12.7231998,,,,,17.7104007E-3,12.6000004,
,,,17.7108012E-3,12.8127995,,,,,17.7108012E-3,12.6000004,
,,,17.7111998E-3,12.8127995,,,,,17.7111998E-3,12.6000004,
,,,17.7116003E-3,12.9919996,,,,,17.7116003E-3,12.6000004,
,,,17.7120008E-3,12.8127995,,,,,17.7120008E-3,12.4000006,
,,,17.7124012E-3,12.8127995,,,,,17.7124012E-3,12.6000004,
,,,17.7127998E-3,12.7231998,,,,,17.7127998E-3,12.6000004,
,,,17.7132003E-3,12.7231998,,,,,17.7132003E-3,12.6000004,
,,,17.7136008E-3,12.7231998,,,,,17.7136008E-3,12.6000004,
,,,17.7140012E-3,12.7231998,,,,,17.7140012E-3,12.6000004,
,,,17.7143998E-3,12.9023991,,,,,17.7143998E-3,12.6000004,
,,,17.7148003E-3,12.8127995,,,,,17.7148003E-3,12.6000004,
,,,17.7152008E-3,12.7231998,,,,,17.7152008E-3,12.6000004,
,,,17.7156013E-3,12.7231998,,,,,17.7156013E-3,12.8000002,
,,,17.7159999E-3,12.9023991,,,,,17.7159999E-3,12.6000004,
,,,17.7164003E-3,12.8127995,,,,,17.7164003E-3,12.6000004,
,,,17.7168008E-3,12.8127995,,,,,17.7168008E-3,12.6000004,
,,,17.7172013E-3,12.7231998,,,,,17.7172013E-3,12.6000004,
,,,17.7175999E-3,12.7231998,,,,,17.7175999E-3,12.6000004,
,,,17.7180003E-3,12.6335993,,,,,17.7180003E-3,12.8000002,
,,,17.7184008E-3,12.8127995,,,,,17.7184008E-3,12.6000004,
,,,17.7188013E-3,12.8127995,,,,,17.7188013E-3,12.6000004,
,,,17.7191999E-3,12.6335993,,,,,17.7191999E-3,12.6000004,
,,,17.7196003E-3,12.9023991,,,,,17.7196003E-3,12.6000004,
,,,17.7200008E-3,12.7231998,,,,,17.7200008E-3,12.6000004,
,,,17.7204013E-3,12.4543991,,,,,17.7204013E-3,12.8000002,
,,,17.7207999E-3,12.8127995,,,,,17.7207999E-3,12.6000004,
,,,17.7212004E-3,12.5439997,,,,,17.7212004E-3,12.6000004,
,,,17.7216008E-3,12.6335993,,,,,17.7216008E-3,12.4000006,
,,,17.7220013E-3,12.8127995,,,,,17.7220013E-3,12.6000004,
,,,17.7223999E-3,12.9023991,,,,,17.7223999E-3,12.6000004,
,,,17.7228004E-3,12.5439997,,,,,17.7228004E-3,12.8000002,
,,,17.7232008E-3,12.6335993,,,,,17.7232008E-3,12.6000004,
,,,17.7236013E-3,12.7231998,,,,,17.7236013E-3,12.6000004,
,,,17.7239999E-3,12.6335993,,,,,17.7239999E-3,12.6000004,
,,,17.7244004E-3,12.8127995,,,,,17.7244004E-3,12.6000004,
,,,17.7248009E-3,12.9023991,,,,,17.7248009E-3,12.6000004,
,,,17.7252013E-3,12.9023991,,,,,17.7252013E-3,12.8000002,
,,,17.7255999E-3,12.6335993,,,,,17.7255999E-3,12.8000002,
,,,17.7260004E-3,12.6335993,,,,,17.7260004E-3,12.6000004,
,,,17.7264009E-3,13.0815992,,,,,17.7264009E-3,12.4000006,
,,,17.7268013E-3,12.9919996,,,,,17.7268013E-3,12.4000006,
,,,17.7271999E-3,12.7231998,,,,,17.7271999E-3,12.6000004,
,,,17.7276004E-3,12.9023991,,,,,17.7276004E-3,12.4000006,
,,,17.7280009E-3,12.7231998,,,,,17.7280009E-3,12.6000004,
,,,17.7284013E-3,12.8127995,,,,,17.7284013E-3,12.6000004,
,,,17.7288000E-3,12.6335993,,,,,17.7288000E-3,12.6000004,
,,,17.7292004E-3,12.9023991,,,,,17.7292004E-3,12.6000004,
,,,17.7296009E-3,12.8127995,,,,,17.7296009E-3,12.6000004,
,,,17.7300014E-3,12.7231998,,,,,17.7300014E-3,12.6000004,
,,,17.7304000E-3,12.7231998,,,,,17.7304000E-3,12.8000002,
,,,17.7308004E-3,12.7231998,,,,,17.7308004E-3,12.6000004,
,,,17.7312009E-3,12.7231998,,,,,17.7312009E-3,12.6000004,
,,,17.7316014E-3,12.6335993,,,,,17.7316014E-3,12.4000006,
,,,17.7320000E-3,12.8127995,,,,,17.7320000E-3,12.4000006,
,,,17.7324004E-3,12.9023991,,,,,17.7324004E-3,12.6000004,
,,,17.7328009E-3,12.7231998,,,,,17.7328009E-3,12.8000002,
,,,17.7332014E-3,12.9023991,,,,,17.7332014E-3,12.6000004,
,,,17.7336000E-3,12.9023991,,,,,17.7336000E-3,12.6000004,
,,,17.7340005E-3,12.8127995,,,,,17.7340005E-3,12.6000004,
,,,17.7344009E-3,12.7231998,,,,,17.7344009E-3,12.4000006,
,,,17.7348014E-3,12.7231998,,,,,17.7348014E-3,12.4000006,
,,,17.7352000E-3,12.6335993,,,,,17.7352000E-3,12.6000004,
,,,17.7356005E-3,12.9919996,,,,,17.7356005E-3,12.4000006,
,,,17.7360009E-3,12.9023991,,,,,17.7360009E-3,12.6000004,
,,,17.7364014E-3,12.8127995,,,,,17.7364014E-3,12.8000002,
,,,17.7368000E-3,12.9023991,,,,,17.7368000E-3,12.8000002,
,,,17.7372005E-3,12.8127995,,,,,17.7372005E-3,12.6000004,
,,,17.7376010E-3,12.6335993,,,,,17.7376010E-3,12.6000004,
,,,17.7380014E-3,12.7231998,,,,,17.7380014E-3,12.6000004,
,,,17.7384000E-3,12.7231998,,,,,17.7384000E-3,12.6000004,
,,,17.7388005E-3,12.8127995,,,,,17.7388005E-3,12.6000004,
,,,17.7392010E-3,12.5439997,,,,,17.7392010E-3,12.6000004,
,,,17.7396014E-3,12.8127995,,,,,17.7396014E-3,12.6000004,
,,,17.7400000E-3,12.7231998,,,,,17.7400000E-3,12.6000004,
,,,17.7404005E-3,12.6335993,,,,,17.7404005E-3,12.8000002,
,,,17.7408010E-3,12.7231998,,,,,17.7408010E-3,12.6000004,
,,,17.7412014E-3,12.5439997,,,,,17.7412014E-3,12.8000002,
,,,17.7416001E-3,12.8127995,,,,,17.7416001E-3,12.6000004,
,,,17.7420005E-3,12.6335993,,,,,17.7420005E-3,12.6000004,
,,,17.7424010E-3,12.8127995,,,,,17.7424010E-3,12.6000004,
,,,17.7428015E-3,12.9023991,,,,,17.7428015E-3,12.6000004,
,,,17.7432001E-3,12.6335993,,,,,17.7432001E-3,12.4000006,
,,,17.7436005E-3,12.8127995,,,,,17.7436005E-3,12.6000004,
,,,17.7440010E-3,12.6335993,,,,,17.7440010E-3,12.4000006,
,,,17.7444015E-3,12.8127995,,,,,17.7444015E-3,12.6000004,
,,,17.7448001E-3,12.8127995,,,,,17.7448001E-3,12.8000002,
,,,17.7452005E-3,12.4543991,,,,,17.7452005E-3,12.6000004,
,,,17.7456010E-3,12.9919996,,,,,17.7456010E-3,12.6000004,
,,,17.7460015E-3,12.8127995,,,,,17.7460015E-3,12.6000004,
,,,17.7464001E-3,12.7231998,,,,,17.7464001E-3,12.6000004,
,,,17.7468006E-3,12.8127995,,,,,17.7468006E-3,12.6000004,
,,,17.7472010E-3,12.7231998,,,,,17.7472010E-3,12.6000004,
,,,17.7476015E-3,12.8127995,,,,,17.7476015E-3,12.6000004,
,,,17.7480001E-3,12.7231998,,,,,17.7480001E-3,12.6000004,
,,,17.7484006E-3,12.7231998,,,,,17.7484006E-3,12.8000002,
,,,17.7488010E-3,12.7231998,,,,,17.7488010E-3,12.6000004,
,,,17.7492015E-3,12.6335993,,,,,17.7492015E-3,12.8000002,
,,,17.7496001E-3,12.7231998,,,,,17.7496001E-3,12.6000004,
,,,17.7500006E-3,12.6335993,,,,,17.7500006E-3,12.6000004,
,,,17.7504010E-3,12.6335993,,,,,17.7504010E-3,12.6000004,
,,,17.7507997E-3,12.8127995,,,,,17.7507997E-3,12.6000004,
,,,17.7512001E-3,12.6335993,,,,,17.7512001E-3,12.6000004,
,,,17.7516006E-3,12.7231998,,,,,17.7516006E-3,12.1999998,
,,,17.7520011E-3,12.8127995,,,,,17.7520011E-3,12.8000002,
,,,17.7523997E-3,12.5439997,,,,,17.7523997E-3,12.4000006,
,,,17.7528001E-3,12.7231998,,,,,17.7528001E-3,12.4000006,
,,,17.7532006E-3,12.6335993,,,,,17.7532006E-3,12.4000006,
,,,17.7536011E-3,12.6335993,,,,,17.7536011E-3,12.6000004,
,,,17.7539997E-3,12.8127995,,,,,17.7539997E-3,12.6000004,
,,,17.7544001E-3,12.6335993,,,,,17.7544001E-3,12.4000006,
,,,17.7548006E-3,12.7231998,,,,,17.7548006E-3,12.6000004,
,,,17.7552011E-3,12.9023991,,,,,17.7552011E-3,12.6000004,
,,,17.7555997E-3,12.9023991,,,,,17.7555997E-3,12.6000004,
,,,17.7560002E-3,12.6335993,,,,,17.7560002E-3,12.6000004,
,,,17.7564006E-3,12.9023991,,,,,17.7564006E-3,12.6000004,
,,,17.7568011E-3,12.7231998,,,,,17.7568011E-3,12.6000004,
,,,17.7571997E-3,12.4543991,,,,,17.7571997E-3,12.6000004,
,,,17.7576002E-3,12.6335993,,,,,17.7576002E-3,12.6000004,
,,,17.7580006E-3,12.8127995,,,,,17.7580006E-3,12.6000004,
,,,17.7584011E-3,12.9023991,,,,,17.7584011E-3,12.6000004,
,,,17.7587997E-3,12.5439997,,,,,17.7587997E-3,12.8000002,
,,,17.7592002E-3,12.8127995,,,,,17.7592002E-3,12.6000004,
,,,17.7596007E-3,12.9023991,,,,,17.7596007E-3,12.6000004,
,,,17.7600011E-3,12.7231998,,,,,17.7600011E-3,12.6000004,
,,,17.7603997E-3,12.5439997,,,,,17.7603997E-3,12.8000002,
,,,17.7608002E-3,12.8127995,,,,,17.7608002E-3,12.6000004,
,,,17.7612007E-3,12.6335993,,,,,17.7612007E-3,12.4000006,
,,,17.7616011E-3,12.8127995,,,,,17.7616011E-3,12.6000004,
,,,17.7619997E-3,12.9023991,,,,,17.7619997E-3,12.6000004,
,,,17.7624002E-3,12.6335993,,,,,17.7624002E-3,12.4000006,
,,,17.7628007E-3,12.5439997,,,,,17.7628007E-3,12.4000006,
,,,17.7632011E-3,12.8127995,,,,,17.7632011E-3,12.8000002,
,,,17.7635998E-3,12.7231998,,,,,17.7635998E-3,12.4000006,
,,,17.7640002E-3,12.7231998,,,,,17.7640002E-3,12.4000006,
,,,17.7644007E-3,12.8127995,,,,,17.7644007E-3,12.6000004,
,,,17.7648012E-3,12.8127995,,,,,17.7648012E-3,12.6000004,
,,,17.7651998E-3,12.7231998,,,,,17.7651998E-3,12.6000004,
,,,17.7656002E-3,12.6335993,,,,,17.7656002E-3,12.4000006,
,,,17.7660007E-3,12.9919996,,,,,17.7660007E-3,12.6000004,
,,,17.7664012E-3,12.8127995,,,,,17.7664012E-3,12.4000006,
,,,17.7667998E-3,12.7231998,,,,,17.7667998E-3,12.6000004,
,,,17.7672002E-3,12.8127995,,,,,17.7672002E-3,12.4000006,
,,,17.7676007E-3,12.7231998,,,,,17.7676007E-3,12.6000004,
,,,17.7680012E-3,12.8127995,,,,,17.7680012E-3,12.6000004,
,,,17.7683998E-3,12.7231998,,,,,17.7683998E-3,12.6000004,
,,,17.7688003E-3,12.7231998,,,,,17.7688003E-3,12.6000004,
,,,17.7692007E-3,12.7231998,,,,,17.7692007E-3,12.8000002,
,,,17.7696012E-3,12.8127995,,,,,17.7696012E-3,12.6000004,
,,,17.7699998E-3,12.8127995,,,,,17.7699998E-3,12.6000004,
,,,17.7704003E-3,12.7231998,,,,,17.7704003E-3,12.6000004,
,,,17.7708007E-3,12.5439997,,,,,17.7708007E-3,12.6000004,
,,,17.7712012E-3,12.6335993,,,,,17.7712012E-3,12.6000004,
,,,17.7715998E-3,12.6335993,,,,,17.7715998E-3,12.4000006,
,,,17.7720003E-3,12.9919996,,,,,17.7720003E-3,12.4000006,
,,,17.7724008E-3,12.7231998,,,,,17.7724008E-3,12.6000004,
,,,17.7728012E-3,12.6335993,,,,,17.7728012E-3,12.6000004,
,,,17.7731998E-3,12.7231998,,,,,17.7731998E-3,12.4000006,
,,,17.7736003E-3,12.7231998,,,,,17.7736003E-3,12.6000004,
,,,17.7740008E-3,12.7231998,,,,,17.7740008E-3,12.4000006,
,,,17.7744012E-3,12.7231998,,,,,17.7744012E-3,12.6000004,
,,,17.7747998E-3,12.9023991,,,,,17.7747998E-3,12.4000006,
,,,17.7752003E-3,12.9023991,,,,,17.7752003E-3,12.4000006,
,,,17.7756008E-3,12.9023991,,,,,17.7756008E-3,12.6000004,
,,,17.7760012E-3,12.8127995,,,,,17.7760012E-3,12.6000004,
,,,17.7763999E-3,12.8127995,,,,,17.7763999E-3,12.8000002,
,,,17.7768003E-3,12.9919996,,,,,17.7768003E-3,12.4000006,
,,,17.7772008E-3,12.5439997,,,,,17.7772008E-3,12.4000006,
,,,17.7776013E-3,12.5439997,,,,,17.7776013E-3,12.6000004,
,,,17.7779999E-3,12.6335993,,,,,17.7779999E-3,12.6000004,
,,,17.7784003E-3,12.7231998,,,,,17.7784003E-3,12.6000004,
,,,17.7788008E-3,12.4543991,,,,,17.7788008E-3,12.6000004,
,,,17.7792013E-3,12.7231998,,,,,17.7792013E-3,12.6000004,
,,,17.7795999E-3,12.5439997,,,,,17.7795999E-3,12.4000006,
,,,17.7800003E-3,12.6335993,,,,,17.7800003E-3,12.6000004,
,,,17.7804008E-3,12.8127995,,,,,17.7804008E-3,12.8000002,
,,,17.7808013E-3,12.6335993,,,,,17.7808013E-3,12.6000004,
,,,17.7811999E-3,12.8127995,,,,,17.7811999E-3,12.4000006,
,,,17.7816004E-3,12.4543991,,,,,17.7816004E-3,12.6000004,
,,,17.7820008E-3,12.8127995,,,,,17.7820008E-3,12.6000004,
,,,17.7824013E-3,12.8127995,,,,,17.7824013E-3,12.6000004,
,,,17.7827999E-3,12.4543991,,,,,17.7827999E-3,12.6000004,
,,,17.7832004E-3,12.8127995,,,,,17.7832004E-3,12.4000006,
,,,17.7836008E-3,12.5439997,,,,,17.7836008E-3,12.6000004,
,,,17.7840013E-3,12.6335993,,,,,17.7840013E-3,12.6000004,
,,,17.7843999E-3,12.7231998,,,,,17.7843999E-3,12.6000004,
,,,17.7848004E-3,12.6335993,,,,,17.7848004E-3,12.8000002,
,,,17.7852008E-3,12.7231998,,,,,17.7852008E-3,12.4000006,
,,,17.7856013E-3,12.8127995,,,,,17.7856013E-3,12.6000004,
,,,17.7859999E-3,12.7231998,,,,,17.7859999E-3,12.6000004,
,,,17.7864004E-3,12.7231998,,,,,17.7864004E-3,12.4000006,
,,,17.7868009E-3,12.8127995,,,,,17.7868009E-3,12.6000004,
,,,17.7872013E-3,12.9919996,,,,,17.7872013E-3,12.6000004,
,,,17.7875999E-3,12.6335993,,,,,17.7875999E-3,12.6000004,
,,,17.7880004E-3,12.9919996,,,,,17.7880004E-3,12.4000006,
,,,17.7884009E-3,12.5439997,,,,,17.7884009E-3,12.6000004,
,,,17.7888013E-3,12.7231998,,,,,17.7888013E-3,12.6000004,
,,,17.7891999E-3,12.7231998,,,,,17.7891999E-3,12.6000004,
,,,17.7896004E-3,12.6335993,,,,,17.7896004E-3,12.6000004,
,,,17.7900009E-3,12.9023991,,,,,17.7900009E-3,12.6000004,
,,,17.7904014E-3,12.8127995,,,,,17.7904014E-3,12.6000004,
,,,17.7908000E-3,12.6335993,,,,,17.7908000E-3,12.6000004,
,,,17.7912004E-3,12.8127995,,,,,17.7912004E-3,12.4000006,
,,,17.7916009E-3,12.6335993,,,,,17.7916009E-3,12.4000006,
,,,17.7920014E-3,12.7231998,,,,,17.7920014E-3,12.6000004,
,,,17.7924000E-3,12.6335993,,,,,17.7924000E-3,12.6000004,
,,,17.7928004E-3,12.7231998,,,,,17.7928004E-3,12.6000004,
,,,17.7932009E-3,12.8127995,,,,,17.7932009E-3,12.6000004,
,,,17.7936014E-3,12.5439997,,,,,17.7936014E-3,12.6000004,
,,,17.7940000E-3,12.6335993,,,,,17.7940000E-3,12.6000004,
,,,17.7944005E-3,12.9023991,,,,,17.7944005E-3,12.6000004,
,,,17.7948009E-3,12.7231998,,,,,17.7948009E-3,12.6000004,
,,,17.7952014E-3,12.7231998,,,,,17.7952014E-3,12.6000004,
,,,17.7956000E-3,12.6335993,,,,,17.7956000E-3,12.6000004,
,,,17.7960005E-3,12.5439997,,,,,17.7960005E-3,12.4000006,
,,,17.7964009E-3,12.8127995,,,,,17.7964009E-3,12.6000004,
,,,17.7968014E-3,12.7231998,,,,,17.7968014E-3,12.6000004,
,,,17.7972000E-3,12.6335993,,,,,17.7972000E-3,12.6000004,
,,,17.7976005E-3,12.6335993,,,,,17.7976005E-3,12.6000004,
,,,17.7980009E-3,12.7231998,,,,,17.7980009E-3,12.4000006,
,,,17.7984014E-3,12.4543991,,,,,17.7984014E-3,12.6000004,
,,,17.7988000E-3,12.7231998,,,,,17.7988000E-3,12.4000006,
,,,17.7992005E-3,12.8127995,,,,,17.7992005E-3,12.6000004,
,,,17.7996010E-3,12.6335993,,,,,17.7996010E-3,12.6000004,
,,,17.8000014E-3,12.5439997,,,,,17.8000014E-3,12.6000004,
,,,17.8004000E-3,12.4543991,,,,,17.8004000E-3,12.4000006,
,,,17.8008005E-3,12.6335993,,,,,17.8008005E-3,12.6000004,
,,,17.8012010E-3,12.8127995,,,,,17.8012010E-3,12.6000004,
,,,17.8016014E-3,12.8127995,,,,,17.8016014E-3,12.4000006,
,,,17.8020000E-3,12.6335993,,,,,17.8020000E-3,12.6000004,
,,,17.8024005E-3,12.4543991,,,,,17.8024005E-3,12.6000004,
,,,17.8028010E-3,12.7231998,,,,,17.8028010E-3,12.6000004,
,,,17.8032015E-3,12.7231998,,,,,17.8032015E-3,12.6000004,
,,,17.8036001E-3,12.7231998,,,,,17.8036001E-3,12.4000006,
,,,17.8040005E-3,12.6335993,,,,,17.8040005E-3,12.6000004,
,,,17.8044010E-3,12.7231998,,,,,17.8044010E-3,12.8000002,
,,,17.8048015E-3,12.8127995,,,,,17.8048015E-3,12.6000004,
,,,17.8052001E-3,12.7231998,,,,,17.8052001E-3,12.6000004,
,,,17.8056005E-3,12.9023991,,,,,17.8056005E-3,12.6000004,
,,,17.8060010E-3,12.7231998,,,,,17.8060010E-3,12.6000004,
,,,17.8064015E-3,12.8127995,,,,,17.8064015E-3,12.4000006,
,,,17.8068001E-3,12.6335993,,,,,17.8068001E-3,12.6000004,
,,,17.8072006E-3,12.6335993,,,,,17.8072006E-3,12.8000002,
,,,17.8076010E-3,12.8127995,,,,,17.8076010E-3,12.6000004,
,,,17.8080015E-3,12.6335993,,,,,17.8080015E-3,12.6000004,
,,,17.8084001E-3,12.8127995,,,,,17.8084001E-3,12.6000004,
,,,17.8088006E-3,12.7231998,,,,,17.8088006E-3,12.6000004,
,,,17.8092010E-3,12.8127995,,,,,17.8092010E-3,12.6000004,
,,,17.8096015E-3,12.7231998,,,,,17.8096015E-3,12.8000002,
,,,17.8100001E-3,12.7231998,,,,,17.8100001E-3,12.6000004,
,,,17.8104006E-3,12.5439997,,,,,17.8104006E-3,12.6000004,
,,,17.8108010E-3,12.5439997,,,,,17.8108010E-3,12.6000004,
,,,17.8111997E-3,12.7231998,,,,,17.8111997E-3,12.6000004,
,,,17.8116001E-3,12.7231998,,,,,17.8116001E-3,12.6000004,
,,,17.8120006E-3,12.5439997,,,,,17.8120006E-3,12.6000004,
,,,17.8124011E-3,12.7231998,,,,,17.8124011E-3,12.6000004,
,,,17.8127997E-3,12.7231998,,,,,17.8127997E-3,12.6000004,
,,,17.8132001E-3,12.6335993,,,,,17.8132001E-3,12.4000006,
,,,17.8136006E-3,12.6335993,,,,,17.8136006E-3,12.6000004,
,,,17.8140011E-3,12.5439997,,,,,17.8140011E-3,12.6000004,
,,,17.8143997E-3,12.7231998,,,,,17.8143997E-3,12.6000004,
,,,17.8148001E-3,12.8127995,,,,,17.8148001E-3,12.4000006,
,,,17.8152006E-3,12.5439997,,,,,17.8152006E-3,12.4000006,
,,,17.8156011E-3,12.6335993,,,,,17.8156011E-3,12.4000006,
,,,17.8159997E-3,12.7231998,,,,,17.8159997E-3,12.8000002,
,,,17.8164002E-3,12.7231998,,,,,17.8164002E-3,12.6000004,
,,,17.8168006E-3,12.7231998,,,,,17.8168006E-3,12.6000004,
,,,17.8172011E-3,12.4543991,,,,,17.8172011E-3,12.6000004,
,,,17.8175997E-3,12.7231998,,,,,17.8175997E-3,12.4000006,
,,,17.8180002E-3,12.8127995,,,,,17.8180002E-3,12.6000004,
,,,17.8184006E-3,12.5439997,,,,,17.8184006E-3,12.4000006,
,,,17.8188011E-3,12.5439997,,,,,17.8188011E-3,12.6000004,
,,,17.8191997E-3,12.7231998,,,,,17.8191997E-3,12.4000006,
,,,17.8196002E-3,12.5439997,,,,,17.8196002E-3,12.4000006,
,,,17.8200006E-3,12.8127995,,,,,17.8200006E-3,12.6000004,
,,,17.8204011E-3,12.5439997,,,,,17.8204011E-3,12.8000002,
,,,17.8207997E-3,12.5439997,,,,,17.8207997E-3,12.4000006,
,,,17.8212002E-3,12.6335993,,,,,17.8212002E-3,12.4000006,
,,,17.8216007E-3,12.7231998,,,,,17.8216007E-3,12.4000006,
