week 3/csv_files/33.3 k hz.csv

Record Length,2500,Points,2.0290001E-3,4.00000000,,Record Length,2500,Points,2.0290001E-3,76.800003052,
Sample Interval,19.9999999E-9,s,2.0290201E-3,4.40000010,,Sample Interval,19.9999999E-9,s,2.0290201E-3,76.800003052,
Trigger Point,-101.4500096E3,Samples,2.0290401E-3,4.40000010,,Trigger Point,-101.4500096E3,Samples,2.0290401E-3,76.000000000,
,,,2.0290602E-3,4.40000010,,,,,2.0290602E-3,76.000000000,
,,,2.0290802E-3,4.40000010,,,,,2.0290802E-3,74.400001526,
,,,2.0291000E-3,4.40000010,,,,,2.0291000E-3,75.200004578,
Source,CH1,,2.0291200E-3,4.00000000,,Source,CH2,,2.0291200E-3,75.200004578,
Vertical Units,Volts,,2.0291400E-3,4.00000000,,Vertical Units,Volts,,2.0291400E-3,74.400001526,
Vertical Scale,10.0000001,,2.0291600E-3,4.40000010,,Vertical Scale,20.0000003,,2.0291600E-3,76.000000000,
Vertical Offset,0,,2.0291801E-3,4.40000010,,Vertical Offset,0,,2.0291801E-3,74.400001526,
Horizontal Units,s,,2.0292001E-3,4.40000010,,Horizontal Units,s,,2.0292001E-3,73.599998474,
Horizontal Scale,4.99999997E-6,,2.0292201E-3,4.40000010,,Horizontal Scale,4.99999997E-6,,2.0292201E-3,73.599998474,
Pt Fmt,Y,,2.0292401E-3,4.00000000,,Pt Fmt,Y,,2.0292401E-3,73.599998474,
Yzero,-1.0400000,,2.0292602E-3,4.00000000,,Yzero,-960.000000000E-3,,2.0292602E-3,73.599998474,
Probe Atten,10.0000000,,2.0292802E-3,4.40000010,,Probe Atten,10.0000000,,2.0292802E-3,73.599998474,
,,,2.0293000E-3,4.00000000,,,,,2.0293000E-3,73.599998474,
Note,TDS 2012C - 10:54:14   29/05/2022,,2.0293200E-3,4.40000010,,Note,TDS 2012C - 10:54:14   29/05/2022,,2.0293200E-3,72.800003052,
,,,2.0293400E-3,4.00000000,,,,,2.0293400E-3,72.000000000,
,,,2.0293600E-3,4.00000000,,,,,2.0293600E-3,72.000000000,
,,,2.0293801E-3,4.40000010,,,,,2.0293801E-3,72.000000000,
,,,2.0294001E-3,4.00000000,,,,,2.0294001E-3,72.000000000,
,,,2.0294201E-3,4.00000000,,,,,2.0294201E-3,71.200004578,
,,,2.0294401E-3,4.00000000,,,,,2.0294401E-3,71.200004578,
,,,2.0294602E-3,4.00000000,,,,,2.0294602E-3,72.000000000,
,,,2.0294802E-3,4.00000000,,,,,2.0294802E-3,71.200004578,
,,,2.0295000E-3,4.40000010,,,,,2.0295000E-3,70.400001526,
,,,2.0295200E-3,4.00000000,,,,,2.0295200E-3,70.400001526,
,,,2.0295400E-3,4.00000000,,,,,2.0295400E-3,69.599998474,
,,,2.0295600E-3,4.00000000,,,,,2.0295600E-3,70.400001526,
,,,2.0295801E-3,4.00000000,,,,,2.0295801E-3,70.400001526,
,,,2.0296001E-3,4.00000000,,,,,2.0296001E-3,69.599998474,
,,,2.0296201E-3,4.00000000,,,,,2.0296201E-3,68.800003052,
,,,2.0296401E-3,4.00000000,,,,,2.0296401E-3,69.599998474,
,,,2.0296602E-3,4.00000000,,,,,2.0296602E-3,68.000000000,
,,,2.0296802E-3,4.00000000,,,,,2.0296802E-3,68.000000000,
,,,2.0297000E-3,4.00000000,,,,,2.0297000E-3,68.000000000,
,,,2.0297200E-3,4.00000000,,,,,2.0297200E-3,67.200004578,
,,,2.0297400E-3,3.60000014,,,,,2.0297400E-3,68.000000000,
,,,2.0297600E-3,3.60000014,,,,,2.0297600E-3,68.000000000,
,,,2.0297801E-3,3.60000014,,,,,2.0297801E-3,66.400001526,
,,,2.0298001E-3,3.60000014,,,,,2.0298001E-3,66.400001526,
,,,2.0298201E-3,4.00000000,,,,,2.0298201E-3,66.400001526,
,,,2.0298401E-3,4.00000000,,,,,2.0298401E-3,66.400001526,
,,,2.0298602E-3,3.60000014,,,,,2.0298602E-3,65.599998474,
,,,2.0298802E-3,4.00000000,,,,,2.0298802E-3,65.599998474,
,,,2.0299000E-3,3.60000014,,,,,2.0299000E-3,65.599998474,
,,,2.0299200E-3,3.60000014,,,,,2.0299200E-3,65.599998474,
,,,2.0299400E-3,3.60000014,,,,,2.0299400E-3,64.800003052,
,,,2.0299600E-3,3.20000005,,,,,2.0299600E-3,64.000000000,
,,,2.0299801E-3,3.60000014,,,,,2.0299801E-3,64.800003052,
,,,2.0300001E-3,3.60000014,,,,,2.0300001E-3,64.800003052,
,,,2.0300201E-3,3.60000014,,,,,2.0300201E-3,64.000000000,
,,,2.0300401E-3,2.79999995,,,,,2.0300401E-3,63.200000763,
,,,2.0300602E-3,2.79999995,,,,,2.0300602E-3,62.400001526,
,,,2.0300802E-3,4.00000000,,,,,2.0300802E-3,63.200000763,
,,,2.0301000E-3,3.60000014,,,,,2.0301000E-3,62.400001526,
,,,2.0301200E-3,3.60000014,,,,,2.0301200E-3,63.200000763,
,,,2.0301400E-3,3.20000005,,,,,2.0301400E-3,62.400001526,
,,,2.0301600E-3,3.20000005,,,,,2.0301600E-3,62.400001526,
,,,2.0301801E-3,3.20000005,,,,,2.0301801E-3,61.600002289,
,,,2.0302001E-3,3.60000014,,,,,2.0302001E-3,61.600002289,
,,,2.0302201E-3,3.60000014,,,,,2.0302201E-3,60.799999237,
,,,2.0302401E-3,3.20000005,,,,,2.0302401E-3,60.799999237,
,,,2.0302602E-3,3.60000014,,,,,2.0302602E-3,60.799999237,
,,,2.0302802E-3,3.20000005,,,,,2.0302802E-3,59.200000763,
,,,2.0303000E-3,3.60000014,,,,,2.0303000E-3,60.000000000,
,,,2.0303200E-3,3.60000014,,,,,2.0303200E-3,59.200000763,
,,,2.0303400E-3,2.79999995,,,,,2.0303400E-3,59.200000763,
,,,2.0303600E-3,3.20000005,,,,,2.0303600E-3,59.200000763,
,,,2.0303801E-3,3.20000005,,,,,2.0303801E-3,58.400001526,
,,,2.0304001E-3,2.79999995,,,,,2.0304001E-3,58.400001526,
,,,2.0304201E-3,3.20000005,,,,,2.0304201E-3,58.400001526,
,,,2.0304401E-3,4.00000000,,,,,2.0304401E-3,58.400001526,
,,,2.0304602E-3,3.60000014,,,,,2.0304602E-3,56.799999237,
,,,2.0304802E-3,3.60000014,,,,,2.0304802E-3,57.600002289,
,,,2.0305000E-3,3.60000014,,,,,2.0305000E-3,56.799999237,
,,,2.0305200E-3,3.60000014,,,,,2.0305200E-3,56.000000000,
,,,2.0305400E-3,3.20000005,,,,,2.0305400E-3,56.000000000,
,,,2.0305600E-3,2.4000001,,,,,2.0305600E-3,56.000000000,
,,,2.0305801E-3,2.79999995,,,,,2.0305801E-3,56.000000000,
,,,2.0306001E-3,3.60000014,,,,,2.0306001E-3,56.000000000,
,,,2.0306201E-3,2.79999995,,,,,2.0306201E-3,56.000000000,
,,,2.0306401E-3,3.20000005,,,,,2.0306401E-3,54.40000153,
,,,2.0306602E-3,3.20000005,,,,,2.0306602E-3,55.200000763,
,,,2.0306802E-3,3.60000014,,,,,2.0306802E-3,54.40000153,
,,,2.0307000E-3,3.20000005,,,,,2.0307000E-3,54.40000153,
,,,2.0307200E-3,2.79999995,,,,,2.0307200E-3,53.60000229,
,,,2.0307400E-3,3.20000005,,,,,2.0307400E-3,53.60000229,
,,,2.0307600E-3,2.4000001,,,,,2.0307600E-3,52.79999924,
,,,2.0307801E-3,3.60000014,,,,,2.0307801E-3,52.00000000,
,,,2.0308001E-3,2.79999995,,,,,2.0308001E-3,52.00000000,
,,,2.0308201E-3,2.79999995,,,,,2.0308201E-3,52.00000000,
,,,2.0308401E-3,3.20000005,,,,,2.0308401E-3,52.00000000,
,,,2.0308602E-3,2.4000001,,,,,2.0308602E-3,51.20000076,
,,,2.0308802E-3,2.79999995,,,,,2.0308802E-3,50.40000153,
,,,2.0309000E-3,2.79999995,,,,,2.0309000E-3,49.60000229,
,,,2.0309200E-3,2.79999995,,,,,2.0309200E-3,50.40000153,
,,,2.0309400E-3,2.79999995,,,,,2.0309400E-3,50.40000153,
,,,2.0309601E-3,2.79999995,,,,,2.0309601E-3,48.79999924,
,,,2.0309801E-3,2.79999995,,,,,2.0309801E-3,48.79999924,
,,,2.0310001E-3,2.4000001,,,,,2.0310001E-3,49.60000229,
,,,2.0310201E-3,2.4000001,,,,,2.0310201E-3,48.79999924,
,,,2.0310401E-3,3.20000005,,,,,2.0310401E-3,48.79999924,
,,,2.0310602E-3,2.79999995,,,,,2.0310602E-3,48.00000000,
,,,2.0310802E-3,2.79999995,,,,,2.0310802E-3,48.00000000,
,,,2.0311000E-3,2.79999995,,,,,2.0311000E-3,47.20000076,
,,,2.0311200E-3,2.79999995,,,,,2.0311200E-3,46.40000153,
,,,2.0311400E-3,3.20000005,,,,,2.0311400E-3,47.20000076,
,,,2.0311601E-3,3.20000005,,,,,2.0311601E-3,46.40000153,
,,,2.0311801E-3,2.79999995,,,,,2.0311801E-3,46.40000153,
,,,2.0312001E-3,2.79999995,,,,,2.0312001E-3,45.60000229,
,,,2.0312201E-3,2.79999995,,,,,2.0312201E-3,45.60000229,
,,,2.0312401E-3,2.4000001,,,,,2.0312401E-3,45.60000229,
,,,2.0312602E-3,2.79999995,,,,,2.0312602E-3,45.60000229,
,,,2.0312802E-3,2.4000001,,,,,2.0312802E-3,44.79999924,
,,,2.0313000E-3,3.20000005,,,,,2.0313000E-3,44.00000000,
,,,2.0313200E-3,2.79999995,,,,,2.0313200E-3,44.00000000,
,,,2.0313400E-3,2.79999995,,,,,2.0313400E-3,43.20000076,
,,,2.0313601E-3,3.60000014,,,,,2.0313601E-3,43.20000076,
,,,2.0313801E-3,2.79999995,,,,,2.0313801E-3,43.20000076,
,,,2.0314001E-3,2.79999995,,,,,2.0314001E-3,42.40000153,
,,,2.0314201E-3,2.4000001,,,,,2.0314201E-3,42.40000153,
,,,2.0314401E-3,3.20000005,,,,,2.0314401E-3,42.40000153,
,,,2.0314602E-3,2.79999995,,,,,2.0314602E-3,40.79999924,
,,,2.0314802E-3,2.4000001,,,,,2.0314802E-3,41.60000229,
,,,2.0315000E-3,2.79999995,,,,,2.0315000E-3,40.79999924,
,,,2.0315200E-3,2.79999995,,,,,2.0315200E-3,40.79999924,
,,,2.0315400E-3,2.79999995,,,,,2.0315400E-3,40.79999924,
,,,2.0315601E-3,2.79999995,,,,,2.0315601E-3,40.00000000,
,,,2.0315801E-3,2.79999995,,,,,2.0315801E-3,39.20000076,
,,,2.0316001E-3,2.4000001,,,,,2.0316001E-3,39.20000076,
,,,2.0316201E-3,3.20000005,,,,,2.0316201E-3,38.40000153,
,,,2.0316401E-3,2.79999995,,,,,2.0316401E-3,39.20000076,
,,,2.0316602E-3,2.4000001,,,,,2.0316602E-3,37.60000229,
,,,2.0316802E-3,3.20000005,,,,,2.0316802E-3,38.40000153,
,,,2.0317000E-3,3.20000005,,,,,2.0317000E-3,37.60000229,
,,,2.0317200E-3,2.4000001,,,,,2.0317200E-3,37.60000229,
,,,2.0317400E-3,2.4000001,,,,,2.0317400E-3,36.79999924,
,,,2.0317601E-3,2.4000001,,,,,2.0317601E-3,36.79999924,
,,,2.0317801E-3,2.4000001,,,,,2.0317801E-3,36.79999924,
,,,2.0318001E-3,2.0000000,,,,,2.0318001E-3,36.79999924,
,,,2.0318201E-3,3.20000005,,,,,2.0318201E-3,35.20000076,
,,,2.0318402E-3,2.4000001,,,,,2.0318402E-3,35.20000076,
,,,2.0318602E-3,2.4000001,,,,,2.0318602E-3,35.20000076,
,,,2.0318802E-3,2.4000001,,,,,2.0318802E-3,33.60000229,
,,,2.0319000E-3,2.4000001,,,,,2.0319000E-3,34.40000153,
,,,2.0319200E-3,2.79999995,,,,,2.0319200E-3,33.60000229,
,,,2.0319400E-3,2.4000001,,,,,2.0319400E-3,32.79999924,
,,,2.0319601E-3,2.79999995,,,,,2.0319601E-3,33.60000229,
,,,2.0319801E-3,2.0000000,,,,,2.0319801E-3,33.60000229,
,,,2.0320001E-3,2.4000001,,,,,2.0320001E-3,32.79999924,
,,,2.0320201E-3,2.4000001,,,,,2.0320201E-3,32.00000000,
,,,2.0320402E-3,2.0000000,,,,,2.0320402E-3,32.00000000,
,,,2.0320602E-3,2.79999995,,,,,2.0320602E-3,31.20000076,
,,,2.0320800E-3,2.79999995,,,,,2.0320800E-3,31.20000076,
,,,2.0321000E-3,2.4000001,,,,,2.0321000E-3,30.39999962,
,,,2.0321200E-3,2.4000001,,,,,2.0321200E-3,30.39999962,
,,,2.0321400E-3,2.4000001,,,,,2.0321400E-3,30.39999962,
,,,2.0321601E-3,2.4000001,,,,,2.0321601E-3,29.60000038,
,,,2.0321801E-3,2.4000001,,,,,2.0321801E-3,28.80000114,
,,,2.0322001E-3,2.0000000,,,,,2.0322001E-3,29.60000038,
,,,2.0322201E-3,2.0000000,,,,,2.0322201E-3,28.80000114,
,,,2.0322402E-3,2.4000001,,,,,2.0322402E-3,28.00000000,
,,,2.0322602E-3,2.4000001,,,,,2.0322602E-3,28.00000000,
,,,2.0322800E-3,2.79999995,,,,,2.0322800E-3,27.20000076,
,,,2.0323000E-3,2.0000000,,,,,2.0323000E-3,27.20000076,
,,,2.0323200E-3,2.4000001,,,,,2.0323200E-3,26.39999962,
,,,2.0323400E-3,2.4000001,,,,,2.0323400E-3,26.39999962,
,,,2.0323601E-3,2.0000000,,,,,2.0323601E-3,26.39999962,
,,,2.0323801E-3,2.4000001,,,,,2.0323801E-3,26.39999962,
,,,2.0324001E-3,2.4000001,,,,,2.0324001E-3,25.60000038,
,,,2.0324201E-3,2.79999995,,,,,2.0324201E-3,24.80000114,
,,,2.0324402E-3,2.79999995,,,,,2.0324402E-3,24.80000114,
,,,2.0324602E-3,2.4000001,,,,,2.0324602E-3,24.00000000,
,,,2.0324800E-3,2.4000001,,,,,2.0324800E-3,23.20000076,
,,,2.0325000E-3,3.20000005,,,,,2.0325000E-3,24.00000000,
,,,2.0325200E-3,2.4000001,,,,,2.0325200E-3,23.20000076,
,,,2.0325400E-3,2.0000000,,,,,2.0325400E-3,22.39999962,
,,,2.0325601E-3,2.0000000,,,,,2.0325601E-3,22.39999962,
,,,2.0325801E-3,2.4000001,,,,,2.0325801E-3,23.20000076,
,,,2.0326001E-3,2.0000000,,,,,2.0326001E-3,21.60000038,
,,,2.0326201E-3,2.0000000,,,,,2.0326201E-3,22.39999962,
,,,2.0326402E-3,2.4000001,,,,,2.0326402E-3,21.60000038,
,,,2.0326602E-3,2.4000001,,,,,2.0326602E-3,21.60000038,
,,,2.0326800E-3,2.4000001,,,,,2.0326800E-3,20.80000114,
,,,2.0327000E-3,2.4000001,,,,,2.0327000E-3,20.0000000,
,,,2.0327200E-3,2.4000001,,,,,2.0327200E-3,20.0000000,
,,,2.0327400E-3,1.6000000,,,,,2.0327400E-3,19.2000008,
,,,2.0327601E-3,2.4000001,,,,,2.0327601E-3,19.2000008,
,,,2.0327801E-3,2.0000000,,,,,2.0327801E-3,19.2000008,
,,,2.0328001E-3,2.4000001,,,,,2.0328001E-3,18.3999996,
,,,2.0328201E-3,2.79999995,,,,,2.0328201E-3,18.3999996,
,,,2.0328402E-3,2.0000000,,,,,2.0328402E-3,17.6000004,
,,,2.0328602E-3,2.4000001,,,,,2.0328602E-3,17.6000004,
,,,2.0328800E-3,2.0000000,,,,,2.0328800E-3,16.8000011,
,,,2.0329000E-3,2.4000001,,,,,2.0329000E-3,16.8000011,
,,,2.0329200E-3,2.0000000,,,,,2.0329200E-3,16.0000000,
,,,2.0329400E-3,2.0000000,,,,,2.0329400E-3,16.0000000,
,,,2.0329601E-3,2.0000000,,,,,2.0329601E-3,16.0000000,
,,,2.0329801E-3,2.0000000,,,,,2.0329801E-3,15.1999998,
,,,2.0330001E-3,2.0000000,,,,,2.0330001E-3,13.6000004,
,,,2.0330201E-3,2.4000001,,,,,2.0330201E-3,14.4000006,
,,,2.0330402E-3,2.4000001,,,,,2.0330402E-3,13.6000004,
,,,2.0330602E-3,2.4000001,,,,,2.0330602E-3,12.8000002,
,,,2.0330800E-3,2.0000000,,,,,2.0330800E-3,12.8000002,
,,,2.0331000E-3,2.0000000,,,,,2.0331000E-3,12.8000002,
,,,2.0331200E-3,2.4000001,,,,,2.0331200E-3,12.8000002,
,,,2.0331400E-3,2.4000001,,,,,2.0331400E-3,11.1999998,
,,,2.0331601E-3,2.0000000,,,,,2.0331601E-3,11.1999998,
,,,2.0331801E-3,2.0000000,,,,,2.0331801E-3,12.0000000,
,,,2.0332001E-3,2.0000000,,,,,2.0332001E-3,11.1999998,
,,,2.0332201E-3,2.4000001,,,,,2.0332201E-3,11.1999998,
,,,2.0332402E-3,2.4000001,,,,,2.0332402E-3,10.4000006,
,,,2.0332602E-3,2.4000001,,,,,2.0332602E-3,9.600000381,
,,,2.0332800E-3,2.4000001,,,,,2.0332800E-3,8.800000191,
,,,2.0333000E-3,2.79999995,,,,,2.0333000E-3,9.600000381,
,,,2.0333200E-3,2.0000000,,,,,2.0333200E-3,8.800000191,
,,,2.0333400E-3,2.4000001,,,,,2.0333400E-3,8.800000191,
,,,2.0333601E-3,2.0000000,,,,,2.0333601E-3,8.000000000,
,,,2.0333801E-3,2.79999995,,,,,2.0333801E-3,8.000000000,
,,,2.0334001E-3,2.4000001,,,,,2.0334001E-3,8.000000000,
,,,2.0334201E-3,1.6000000,,,,,2.0334201E-3,8.000000000,
,,,2.0334402E-3,2.4000001,,,,,2.0334402E-3,6.40000010,
,,,2.0334602E-3,2.4000001,,,,,2.0334602E-3,6.40000010,
,,,2.0334800E-3,2.4000001,,,,,2.0334800E-3,6.40000010,
,,,2.0335000E-3,2.4000001,,,,,2.0335000E-3,4.80000019,
,,,2.0335200E-3,2.4000001,,,,,2.0335200E-3,5.59999990,
,,,2.0335400E-3,2.4000001,,,,,2.0335400E-3,5.59999990,
,,,2.0335601E-3,2.4000001,,,,,2.0335601E-3,3.20000005,
,,,2.0335801E-3,2.4000001,,,,,2.0335801E-3,4.80000019,
,,,2.0336001E-3,2.4000001,,,,,2.0336001E-3,4.00000000,
,,,2.0336201E-3,2.4000001,,,,,2.0336201E-3,3.20000005,
,,,2.0336402E-3,2.4000001,,,,,2.0336402E-3,3.20000005,
,,,2.0336602E-3,2.4000001,,,,,2.0336602E-3,3.20000005,
,,,2.0336800E-3,2.4000001,,,,,2.0336800E-3,3.20000005,
,,,2.0337000E-3,2.0000000,,,,,2.0337000E-3,2.4000001,
,,,2.0337200E-3,2.0000000,,,,,2.0337200E-3,2.4000001,
,,,2.0337400E-3,1.6000000,,,,,2.0337400E-3,800.000011921E-3,
,,,2.0337601E-3,2.4000001,,,,,2.0337601E-3,1.6000000,
,,,2.0337801E-3,2.0000000,,,,,2.0337801E-3,1.6000000,
,,,2.0338001E-3,2.79999995,,,,,2.0338001E-3,800.000011921E-3,
,,,2.0338201E-3,2.4000001,,,,,2.0338201E-3,800.000011921E-3,
,,,2.0338402E-3,2.4000001,,,,,2.0338402E-3,-800.000011921E-3,
,,,2.0338602E-3,2.0000000,,,,,2.0338602E-3,-800.000011921E-3,
,,,2.0338800E-3,1.6000000,,,,,2.0338800E-3,-800.000011921E-3,
,,,2.0339000E-3,2.4000001,,,,,2.0339000E-3,-1.6000000,
,,,2.0339200E-3,2.0000000,,,,,2.0339200E-3,-1.6000000,
,,,2.0339401E-3,2.4000001,,,,,2.0339401E-3,-1.6000000,
,,,2.0339601E-3,2.4000001,,,,,2.0339601E-3,-2.4000001,
,,,2.0339801E-3,2.0000000,,,,,2.0339801E-3,-3.20000005,
,,,2.0340001E-3,2.0000000,,,,,2.0340001E-3,-4.00000000,
,,,2.0340201E-3,2.4000001,,,,,2.0340201E-3,-3.20000005,
,,,2.0340402E-3,2.79999995,,,,,2.0340402E-3,-3.20000005,
,,,2.0340602E-3,2.0000000,,,,,2.0340602E-3,-4.80000019,
,,,2.0340800E-3,2.4000001,,,,,2.0340800E-3,-4.80000019,
,,,2.0341000E-3,2.4000001,,,,,2.0341000E-3,-4.80000019,
,,,2.0341200E-3,2.79999995,,,,,2.0341200E-3,-5.59999990,
,,,2.0341401E-3,2.4000001,,,,,2.0341401E-3,-5.59999990,
,,,2.0341601E-3,2.79999995,,,,,2.0341601E-3,-5.59999990,
,,,2.0341801E-3,2.79999995,,,,,2.0341801E-3,-6.40000010,
,,,2.0342001E-3,2.0000000,,,,,2.0342001E-3,-7.20000029,
,,,2.0342201E-3,2.4000001,,,,,2.0342201E-3,-7.20000029,
,,,2.0342402E-3,2.4000001,,,,,2.0342402E-3,-8.000000000,
,,,2.0342602E-3,2.4000001,,,,,2.0342602E-3,-7.20000029,
,,,2.0342800E-3,2.4000001,,,,,2.0342800E-3,-8.800000191,
,,,2.0343000E-3,2.0000000,,,,,2.0343000E-3,-9.600000381,
,,,2.0343200E-3,2.4000001,,,,,2.0343200E-3,-8.000000000,
,,,2.0343401E-3,2.0000000,,,,,2.0343401E-3,-9.600000381,
,,,2.0343601E-3,2.4000001,,,,,2.0343601E-3,-8.800000191,
,,,2.0343801E-3,2.0000000,,,,,2.0343801E-3,-10.4000006,
,,,2.0344001E-3,2.4000001,,,,,2.0344001E-3,-10.4000006,
,,,2.0344201E-3,2.4000001,,,,,2.0344201E-3,-11.1999998,
,,,2.0344402E-3,2.79999995,,,,,2.0344402E-3,-11.1999998,
,,,2.0344602E-3,2.4000001,,,,,2.0344602E-3,-11.1999998,
,,,2.0344800E-3,2.4000001,,,,,2.0344800E-3,-12.0000000,
,,,2.0345000E-3,2.4000001,,,,,2.0345000E-3,-12.0000000,
,,,2.0345200E-3,2.4000001,,,,,2.0345200E-3,-12.8000002,
,,,2.0345401E-3,2.4000001,,,,,2.0345401E-3,-12.8000002,
,,,2.0345601E-3,2.4000001,,,,,2.0345601E-3,-12.8000002,
,,,2.0345801E-3,2.0000000,,,,,2.0345801E-3,-13.6000004,
,,,2.0346001E-3,2.4000001,,,,,2.0346001E-3,-13.6000004,
,,,2.0346201E-3,2.4000001,,,,,2.0346201E-3,-14.4000006,
,,,2.0346402E-3,3.20000005,,,,,2.0346402E-3,-15.1999998,
,,,2.0346602E-3,2.79999995,,,,,2.0346602E-3,-14.4000006,
,,,2.0346800E-3,2.0000000,,,,,2.0346800E-3,-15.1999998,
,,,2.0347000E-3,2.79999995,,,,,2.0347000E-3,-15.1999998,
,,,2.0347200E-3,2.4000001,,,,,2.0347200E-3,-16.0000000,
,,,2.0347401E-3,2.79999995,,,,,2.0347401E-3,-16.0000000,
,,,2.0347601E-3,2.0000000,,,,,2.0347601E-3,-16.0000000,
,,,2.0347801E-3,2.4000001,,,,,2.0347801E-3,-17.6000004,
,,,2.0348001E-3,2.4000001,,,,,2.0348001E-3,-17.6000004,
,,,2.0348202E-3,2.4000001,,,,,2.0348202E-3,-17.6000004,
,,,2.0348402E-3,2.0000000,,,,,2.0348402E-3,-18.3999996,
,,,2.0348602E-3,2.4000001,,,,,2.0348602E-3,-18.3999996,
,,,2.0348800E-3,2.4000001,,,,,2.0348800E-3,-18.3999996,
,,,2.0349000E-3,2.4000001,,,,,2.0349000E-3,-19.2000008,
,,,2.0349200E-3,2.79999995,,,,,2.0349200E-3,-19.2000008,
,,,2.0349401E-3,2.4000001,,,,,2.0349401E-3,-19.2000008,
,,,2.0349601E-3,2.0000000,,,,,2.0349601E-3,-20.0000000,
,,,2.0349801E-3,2.4000001,,,,,2.0349801E-3,-20.0000000,
,,,2.0350001E-3,2.79999995,,,,,2.0350001E-3,-20.80000114,
,,,2.0350202E-3,2.79999995,,,,,2.0350202E-3,-21.60000038,
,,,2.0350402E-3,3.20000005,,,,,2.0350402E-3,-22.39999962,
,,,2.0350602E-3,2.4000001,,,,,2.0350602E-3,-22.39999962,
,,,2.0350800E-3,2.4000001,,,,,2.0350800E-3,-22.39999962,
,,,2.0351000E-3,2.79999995,,,,,2.0351000E-3,-22.39999962,
,,,2.0351200E-3,2.79999995,,,,,2.0351200E-3,-23.20000076,
,,,2.0351401E-3,2.4000001,,,,,2.0351401E-3,-23.20000076,
,,,2.0351601E-3,2.4000001,,,,,2.0351601E-3,-22.39999962,
,,,2.0351801E-3,2.79999995,,,,,2.0351801E-3,-24.00000000,
,,,2.0352001E-3,2.79999995,,,,,2.0352001E-3,-24.00000000,
,,,2.0352202E-3,2.79999995,,,,,2.0352202E-3,-24.80000114,
,,,2.0352402E-3,2.79999995,,,,,2.0352402E-3,-24.80000114,
,,,2.0352600E-3,2.79999995,,,,,2.0352600E-3,-25.60000038,
,,,2.0352800E-3,2.79999995,,,,,2.0352800E-3,-26.39999962,
,,,2.0353000E-3,2.4000001,,,,,2.0353000E-3,-26.39999962,
,,,2.0353200E-3,2.79999995,,,,,2.0353200E-3,-25.60000038,
,,,2.0353401E-3,2.0000000,,,,,2.0353401E-3,-27.20000076,
,,,2.0353601E-3,2.4000001,,,,,2.0353601E-3,-27.20000076,
,,,2.0353801E-3,2.4000001,,,,,2.0353801E-3,-26.39999962,
,,,2.0354001E-3,3.20000005,,,,,2.0354001E-3,-27.20000076,
,,,2.0354202E-3,2.4000001,,,,,2.0354202E-3,-28.80000114,
,,,2.0354402E-3,2.79999995,,,,,2.0354402E-3,-28.80000114,
,,,2.0354600E-3,2.79999995,,,,,2.0354600E-3,-28.00000000,
,,,2.0354800E-3,2.4000001,,,,,2.0354800E-3,-28.80000114,
,,,2.0355000E-3,3.20000005,,,,,2.0355000E-3,-28.80000114,
,,,2.0355200E-3,2.79999995,,,,,2.0355200E-3,-29.60000038,
,,,2.0355401E-3,2.79999995,,,,,2.0355401E-3,-29.60000038,
,,,2.0355601E-3,2.79999995,,,,,2.0355601E-3,-30.39999962,
,,,2.0355801E-3,2.79999995,,,,,2.0355801E-3,-30.39999962,
,,,2.0356001E-3,2.79999995,,,,,2.0356001E-3,-29.60000038,
,,,2.0356202E-3,3.20000005,,,,,2.0356202E-3,-32.00000000,
,,,2.0356402E-3,3.20000005,,,,,2.0356402E-3,-31.20000076,
,,,2.0356600E-3,2.79999995,,,,,2.0356600E-3,-32.00000000,
,,,2.0356800E-3,2.79999995,,,,,2.0356800E-3,-32.00000000,
,,,2.0357000E-3,2.4000001,,,,,2.0357000E-3,-32.00000000,
,,,2.0357200E-3,2.4000001,,,,,2.0357200E-3,-32.79999924,
,,,2.0357401E-3,2.79999995,,,,,2.0357401E-3,-32.79999924,
,,,2.0357601E-3,2.79999995,,,,,2.0357601E-3,-33.60000229,
,,,2.0357801E-3,3.20000005,,,,,2.0357801E-3,-33.60000229,
,,,2.0358001E-3,2.79999995,,,,,2.0358001E-3,-33.60000229,
