week 2/csv_files/Q2/2 - 4220 ohm.csv

Record Length,2500,Points,17.8579986E-3,12.4543991,,Record Length,2500,Points,17.8579986E-3,12.4000006,
Sample Interval,200.00000234E-9,s,17.8581979E-3,12.5439997,,Sample Interval,200.00000234E-9,s,17.8581979E-3,12.6000004,
Trigger Point,-89.289996245E3,Samples,17.8583991E-3,12.7231998,,Trigger Point,-89.289996245E3,Samples,17.8583991E-3,12.1999998,
,,,17.8585984E-3,12.6335993,,,,,17.8585984E-3,12.4000006,
,,,17.8587977E-3,12.5439997,,,,,17.8587977E-3,12.4000006,
,,,17.8589988E-3,12.4543991,,,,,17.8589988E-3,12.6000004,
Source,CH1,,17.8591982E-3,12.5439997,,Source,CH2,,17.8591982E-3,12.6000004,
Vertical Units,Volts,,17.8593993E-3,12.3647995,,Vertical Units,Volts,,17.8593993E-3,12.4000006,
Vertical Scale,2.2399999,,17.8595986E-3,12.3647995,,Vertical Scale,5.00000007,,17.8595986E-3,12.6000004,
Vertical Offset,0,,17.8597979E-3,12.8127995,,Vertical Offset,0,,17.8597979E-3,12.4000006,
Horizontal Units,s,,17.8599991E-3,12.5439997,,Horizontal Units,s,,17.8599991E-3,12.4000006,
Horizontal Scale,50.00000058E-6,,17.8601984E-3,12.8127995,,Horizontal Scale,50.00000058E-6,,17.8601984E-3,12.6000004,
Pt Fmt,Y,,17.8603977E-3,12.5439997,,Pt Fmt,Y,,17.8603977E-3,12.6000004,
Yzero,-2.6400000,,17.8605989E-3,12.5439997,,Yzero,-1.3600000,,17.8605989E-3,12.4000006,
Probe Atten,1.000000,,17.8607982E-3,12.4543991,,Probe Atten,1.000000,,17.8607982E-3,12.6000004,
,,,17.8609993E-3,12.6335993,,,,,17.8609993E-3,12.4000006,
Note,TDS 2012C - 11:25:07   22/05/2022,,17.8611986E-3,12.5439997,,Note,TDS 2012C - 11:25:07   22/05/2022,,17.8611986E-3,12.6000004,
,,,17.8613979E-3,12.2751999,,,,,17.8613979E-3,12.4000006,
,,,17.8615991E-3,12.6335993,,,,,17.8615991E-3,12.6000004,
,,,17.8617984E-3,12.5439997,,,,,17.8617984E-3,12.4000006,
,,,17.8619977E-3,12.5439997,,,,,17.8619977E-3,12.4000006,
,,,17.8621989E-3,12.6335993,,,,,17.8621989E-3,12.8000002,
,,,17.8623982E-3,12.7231998,,,,,17.8623982E-3,12.4000006,
,,,17.8625993E-3,12.6335993,,,,,17.8625993E-3,12.6000004,
,,,17.8627986E-3,12.5439997,,,,,17.8627986E-3,12.4000006,
,,,17.8629979E-3,12.5439997,,,,,17.8629979E-3,12.6000004,
,,,17.8631991E-3,12.9023991,,,,,17.8631991E-3,12.6000004,
,,,17.8633984E-3,12.6335993,,,,,17.8633984E-3,12.6000004,
,,,17.8635977E-3,12.5439997,,,,,17.8635977E-3,12.6000004,
,,,17.8637989E-3,12.5439997,,,,,17.8637989E-3,12.4000006,
,,,17.8639982E-3,12.6335993,,,,,17.8639982E-3,12.4000006,
,,,17.8641994E-3,12.3647995,,,,,17.8641994E-3,12.4000006,
,,,17.8643987E-3,12.6335993,,,,,17.8643987E-3,12.4000006,
,,,17.8645980E-3,12.6335993,,,,,17.8645980E-3,12.6000004,
,,,17.8647991E-3,12.5439997,,,,,17.8647991E-3,12.4000006,
,,,17.8649984E-3,12.4543991,,,,,17.8649984E-3,12.4000006,
,,,17.8651977E-3,12.7231998,,,,,17.8651977E-3,12.4000006,
,,,17.8653989E-3,12.6335993,,,,,17.8653989E-3,12.4000006,
,,,17.8655982E-3,12.4543991,,,,,17.8655982E-3,12.6000004,
,,,17.8657994E-3,12.4543991,,,,,17.8657994E-3,12.6000004,
,,,17.8659987E-3,12.7231998,,,,,17.8659987E-3,12.4000006,
,,,17.8661980E-3,12.6335993,,,,,17.8661980E-3,12.6000004,
,,,17.8663991E-3,12.5439997,,,,,17.8663991E-3,12.4000006,
,,,17.8665984E-3,12.6335993,,,,,17.8665984E-3,12.4000006,
,,,17.8667977E-3,12.5439997,,,,,17.8667977E-3,12.4000006,
,,,17.8669989E-3,12.6335993,,,,,17.8669989E-3,12.4000006,
,,,17.8671982E-3,12.5439997,,,,,17.8671982E-3,12.6000004,
,,,17.8673994E-3,12.4543991,,,,,17.8673994E-3,12.6000004,
,,,17.8675987E-3,12.4543991,,,,,17.8675987E-3,12.6000004,
,,,17.8677980E-3,12.5439997,,,,,17.8677980E-3,12.6000004,
,,,17.8679992E-3,12.5439997,,,,,17.8679992E-3,12.4000006,
,,,17.8681985E-3,12.8127995,,,,,17.8681985E-3,12.4000006,
,,,17.8683978E-3,12.5439997,,,,,17.8683978E-3,12.6000004,
,,,17.8685989E-3,12.3647995,,,,,17.8685989E-3,12.4000006,
,,,17.8687982E-3,12.5439997,,,,,17.8687982E-3,12.4000006,
,,,17.8689994E-3,12.3647995,,,,,17.8689994E-3,12.4000006,
,,,17.8691987E-3,12.4543991,,,,,17.8691987E-3,12.4000006,
,,,17.8693980E-3,12.3647995,,,,,17.8693980E-3,12.4000006,
,,,17.8695992E-3,12.6335993,,,,,17.8695992E-3,12.6000004,
,,,17.8697985E-3,12.7231998,,,,,17.8697985E-3,12.4000006,
,,,17.8699978E-3,12.8127995,,,,,17.8699978E-3,12.1999998,
,,,17.8701989E-3,12.7231998,,,,,17.8701989E-3,12.1999998,
,,,17.8703982E-3,12.3647995,,,,,17.8703982E-3,12.6000004,
,,,17.8705994E-3,12.6335993,,,,,17.8705994E-3,12.6000004,
,,,17.8707987E-3,12.3647995,,,,,17.8707987E-3,12.4000006,
,,,17.8709980E-3,12.6335993,,,,,17.8709980E-3,12.4000006,
,,,17.8711992E-3,12.6335993,,,,,17.8711992E-3,12.6000004,
,,,17.8713985E-3,12.6335993,,,,,17.8713985E-3,12.6000004,
,,,17.8715978E-3,12.5439997,,,,,17.8715978E-3,12.6000004,
,,,17.8717989E-3,12.7231998,,,,,17.8717989E-3,12.4000006,
,,,17.8719983E-3,12.7231998,,,,,17.8719983E-3,12.4000006,
,,,17.8721994E-3,12.5439997,,,,,17.8721994E-3,12.6000004,
,,,17.8723987E-3,12.4543991,,,,,17.8723987E-3,12.6000004,
,,,17.8725980E-3,12.5439997,,,,,17.8725980E-3,12.4000006,
,,,17.8727992E-3,12.4543991,,,,,17.8727992E-3,12.6000004,
,,,17.8729985E-3,12.4543991,,,,,17.8729985E-3,12.4000006,
,,,17.8731978E-3,12.6335993,,,,,17.8731978E-3,12.4000006,
,,,17.8733990E-3,12.4543991,,,,,17.8733990E-3,12.6000004,
,,,17.8735983E-3,12.3647995,,,,,17.8735983E-3,12.4000006,
,,,17.8737994E-3,12.8127995,,,,,17.8737994E-3,12.6000004,
,,,17.8739987E-3,12.4543991,,,,,17.8739987E-3,12.4000006,
,,,17.8741980E-3,12.5439997,,,,,17.8741980E-3,12.6000004,
,,,17.8743992E-3,12.6335993,,,,,17.8743992E-3,12.6000004,
,,,17.8745985E-3,12.5439997,,,,,17.8745985E-3,12.6000004,
,,,17.8747978E-3,12.6335993,,,,,17.8747978E-3,12.4000006,
,,,17.8749990E-3,12.4543991,,,,,17.8749990E-3,12.6000004,
,,,17.8751983E-3,12.4543991,,,,,17.8751983E-3,12.4000006,
,,,17.8753994E-3,12.5439997,,,,,17.8753994E-3,12.6000004,
,,,17.8755987E-3,12.4543991,,,,,17.8755987E-3,12.6000004,
,,,17.8757980E-3,12.5439997,,,,,17.8757980E-3,12.6000004,
,,,17.8759992E-3,12.4543991,,,,,17.8759992E-3,12.4000006,
,,,17.8761985E-3,12.4543991,,,,,17.8761985E-3,12.6000004,
,,,17.8763978E-3,12.5439997,,,,,17.8763978E-3,12.6000004,
,,,17.8765990E-3,12.3647995,,,,,17.8765990E-3,12.6000004,
,,,17.8767983E-3,12.3647995,,,,,17.8767983E-3,12.6000004,
,,,17.8769995E-3,12.3647995,,,,,17.8769995E-3,12.6000004,
,,,17.8771988E-3,12.4543991,,,,,17.8771988E-3,12.6000004,
,,,17.8773981E-3,12.3647995,,,,,17.8773981E-3,12.6000004,
,,,17.8775992E-3,12.5439997,,,,,17.8775992E-3,12.4000006,
,,,17.8777985E-3,12.5439997,,,,,17.8777985E-3,12.4000006,
,,,17.8779978E-3,12.5439997,,,,,17.8779978E-3,12.4000006,
,,,17.8781990E-3,12.7231998,,,,,17.8781990E-3,12.4000006,
,,,17.8783983E-3,12.7231998,,,,,17.8783983E-3,12.4000006,
,,,17.8785995E-3,12.5439997,,,,,17.8785995E-3,12.4000006,
,,,17.8787988E-3,12.6335993,,,,,17.8787988E-3,12.4000006,
,,,17.8789981E-3,12.5439997,,,,,17.8789981E-3,12.4000006,
,,,17.8791992E-3,12.5439997,,,,,17.8791992E-3,12.6000004,
,,,17.8793985E-3,12.5439997,,,,,17.8793985E-3,12.4000006,
,,,17.8795978E-3,12.5439997,,,,,17.8795978E-3,12.4000006,
,,,17.8797990E-3,12.4543991,,,,,17.8797990E-3,12.6000004,
,,,17.8799983E-3,12.6335993,,,,,17.8799983E-3,12.6000004,
,,,17.8801995E-3,12.3647995,,,,,17.8801995E-3,12.6000004,
,,,17.8803988E-3,12.3647995,,,,,17.8803988E-3,12.4000006,
,,,17.8805981E-3,12.4543991,,,,,17.8805981E-3,12.4000006,
,,,17.8807992E-3,12.6335993,,,,,17.8807992E-3,12.6000004,
,,,17.8809986E-3,12.4543991,,,,,17.8809986E-3,12.4000006,
,,,17.8811979E-3,12.3647995,,,,,17.8811979E-3,12.6000004,
,,,17.8813990E-3,12.6335993,,,,,17.8813990E-3,12.4000006,
,,,17.8815983E-3,12.6335993,,,,,17.8815983E-3,12.6000004,
,,,17.8817995E-3,12.6335993,,,,,17.8817995E-3,12.4000006,
,,,17.8819988E-3,12.4543991,,,,,17.8819988E-3,12.6000004,
,,,17.8821981E-3,12.7231998,,,,,17.8821981E-3,12.6000004,
,,,17.8823993E-3,12.7231998,,,,,17.8823993E-3,12.6000004,
,,,17.8825986E-3,12.6335993,,,,,17.8825986E-3,12.4000006,
,,,17.8827979E-3,12.5439997,,,,,17.8827979E-3,12.4000006,
,,,17.8829990E-3,12.5439997,,,,,17.8829990E-3,12.4000006,
,,,17.8831983E-3,12.6335993,,,,,17.8831983E-3,12.6000004,
,,,17.8833995E-3,12.5439997,,,,,17.8833995E-3,12.6000004,
,,,17.8835988E-3,12.5439997,,,,,17.8835988E-3,12.4000006,
,,,17.8837981E-3,12.4543991,,,,,17.8837981E-3,12.6000004,
,,,17.8839993E-3,12.3647995,,,,,17.8839993E-3,12.6000004,
,,,17.8841986E-3,12.4543991,,,,,17.8841986E-3,12.4000006,
,,,17.8843979E-3,12.5439997,,,,,17.8843979E-3,12.6000004,
,,,17.8845990E-3,12.5439997,,,,,17.8845990E-3,12.4000006,
,,,17.8847983E-3,12.5439997,,,,,17.8847983E-3,12.4000006,
,,,17.8849995E-3,12.5439997,,,,,17.8849995E-3,12.4000006,
,,,17.8851988E-3,12.6335993,,,,,17.8851988E-3,12.4000006,
,,,17.8853981E-3,12.5439997,,,,,17.8853981E-3,12.6000004,
,,,17.8855993E-3,12.6335993,,,,,17.8855993E-3,12.6000004,
,,,17.8857986E-3,12.3647995,,,,,17.8857986E-3,12.4000006,
,,,17.8859979E-3,12.4543991,,,,,17.8859979E-3,12.8000002,
,,,17.8861991E-3,12.4543991,,,,,17.8861991E-3,12.4000006,
,,,17.8863984E-3,12.7231998,,,,,17.8863984E-3,12.4000006,
,,,17.8865995E-3,12.4543991,,,,,17.8865995E-3,12.4000006,
,,,17.8867988E-3,12.7231998,,,,,17.8867988E-3,12.6000004,
,,,17.8869981E-3,12.2751999,,,,,17.8869981E-3,12.4000006,
,,,17.8871993E-3,12.6335993,,,,,17.8871993E-3,12.8000002,
,,,17.8873986E-3,12.4543991,,,,,17.8873986E-3,12.6000004,
,,,17.8875979E-3,12.6335993,,,,,17.8875979E-3,12.6000004,
,,,17.8877991E-3,12.7231998,,,,,17.8877991E-3,12.4000006,
,,,17.8879984E-3,12.7231998,,,,,17.8879984E-3,12.4000006,
,,,17.8881995E-3,12.5439997,,,,,17.8881995E-3,12.6000004,
,,,17.8883988E-3,12.4543991,,,,,17.8883988E-3,12.4000006,
,,,17.8885981E-3,12.4543991,,,,,17.8885981E-3,12.4000006,
,,,17.8887993E-3,12.4543991,,,,,17.8887993E-3,12.4000006,
,,,17.8889986E-3,12.6335993,,,,,17.8889986E-3,12.4000006,
,,,17.8891979E-3,12.5439997,,,,,17.8891979E-3,12.6000004,
,,,17.8893991E-3,12.4543991,,,,,17.8893991E-3,12.6000004,
,,,17.8895984E-3,12.6335993,,,,,17.8895984E-3,12.6000004,
,,,17.8897977E-3,12.8127995,,,,,17.8897977E-3,12.6000004,
,,,17.8899989E-3,12.4543991,,,,,17.8899989E-3,12.4000006,
,,,17.8901982E-3,12.5439997,,,,,17.8901982E-3,12.8000002,
,,,17.8903993E-3,12.5439997,,,,,17.8903993E-3,12.8000002,
,,,17.8905986E-3,12.5439997,,,,,17.8905986E-3,12.4000006,
,,,17.8907979E-3,12.6335993,,,,,17.8907979E-3,12.4000006,
,,,17.8909991E-3,12.4543991,,,,,17.8909991E-3,12.4000006,
,,,17.8911984E-3,12.6335993,,,,,17.8911984E-3,12.6000004,
,,,17.8913977E-3,12.3647995,,,,,17.8913977E-3,12.4000006,
,,,17.8915989E-3,12.5439997,,,,,17.8915989E-3,12.4000006,
,,,17.8917982E-3,12.5439997,,,,,17.8917982E-3,12.6000004,
,,,17.8919993E-3,12.6335993,,,,,17.8919993E-3,12.4000006,
,,,17.8921986E-3,12.3647995,,,,,17.8921986E-3,12.4000006,
,,,17.8923979E-3,12.6335993,,,,,17.8923979E-3,12.4000006,
,,,17.8925991E-3,12.4543991,,,,,17.8925991E-3,12.6000004,
,,,17.8927984E-3,12.5439997,,,,,17.8927984E-3,12.4000006,
,,,17.8929977E-3,12.4543991,,,,,17.8929977E-3,12.4000006,
,,,17.8931989E-3,12.4543991,,,,,17.8931989E-3,12.4000006,
,,,17.8933982E-3,12.4543991,,,,,17.8933982E-3,12.4000006,
,,,17.8935993E-3,12.5439997,,,,,17.8935993E-3,12.1999998,
,,,17.8937986E-3,12.5439997,,,,,17.8937986E-3,12.6000004,
,,,17.8939980E-3,12.4543991,,,,,17.8939980E-3,12.6000004,
,,,17.8941991E-3,12.7231998,,,,,17.8941991E-3,12.6000004,
,,,17.8943984E-3,12.6335993,,,,,17.8943984E-3,12.6000004,
,,,17.8945977E-3,12.7231998,,,,,17.8945977E-3,12.4000006,
,,,17.8947989E-3,12.5439997,,,,,17.8947989E-3,12.6000004,
,,,17.8949982E-3,12.5439997,,,,,17.8949982E-3,12.6000004,
,,,17.8951994E-3,12.4543991,,,,,17.8951994E-3,12.6000004,
,,,17.8953987E-3,12.5439997,,,,,17.8953987E-3,12.4000006,
,,,17.8955980E-3,12.5439997,,,,,17.8955980E-3,12.4000006,
,,,17.8957991E-3,12.4543991,,,,,17.8957991E-3,12.4000006,
,,,17.8959984E-3,12.2751999,,,,,17.8959984E-3,12.4000006,
,,,17.8961977E-3,12.4543991,,,,,17.8961977E-3,12.4000006,
,,,17.8963989E-3,12.4543991,,,,,17.8963989E-3,12.4000006,
,,,17.8965982E-3,12.5439997,,,,,17.8965982E-3,12.1999998,
,,,17.8967994E-3,12.4543991,,,,,17.8967994E-3,12.4000006,
,,,17.8969987E-3,12.6335993,,,,,17.8969987E-3,12.4000006,
,,,17.8971980E-3,12.3647995,,,,,17.8971980E-3,12.1999998,
,,,17.8973991E-3,12.4543991,,,,,17.8973991E-3,12.6000004,
,,,17.8975984E-3,12.3647995,,,,,17.8975984E-3,12.6000004,
,,,17.8977977E-3,12.5439997,,,,,17.8977977E-3,12.4000006,
,,,17.8979989E-3,12.6335993,,,,,17.8979989E-3,12.4000006,
,,,17.8981982E-3,12.5439997,,,,,17.8981982E-3,12.4000006,
,,,17.8983994E-3,11.9167995,,,,,17.8983994E-3,12.4000006,
,,,17.8985987E-3,12.1855993,,,,,17.8985987E-3,12.4000006,
,,,17.8987980E-3,12.0063992,,,,,17.8987980E-3,12.6000004,
,,,17.8989992E-3,12.0063992,,,,,17.8989992E-3,12.4000006,
,,,17.8991985E-3,11.9167995,,,,,17.8991985E-3,-2.0000000,
,,,17.8993978E-3,12.0959997,,,,,17.8993978E-3,-2.0000000,
,,,17.8995989E-3,11.9167995,,,,,17.8995989E-3,-2.0000000,
,,,17.8997982E-3,12.0063992,,,,,17.8997982E-3,-2.0000000,
,,,17.8999994E-3,11.9167995,,,,,17.8999994E-3,-2.2000000,
,,,17.9001987E-3,11.5583992,,,,,17.9001987E-3,-2.2000000,
,,,17.9003980E-3,11.2895994,,,,,17.9003980E-3,-1.8000001,
,,,17.9005992E-3,11.2895994,,,,,17.9005992E-3,-1.8000001,
,,,17.9007985E-3,11.1999998,,,,,17.9007985E-3,-1.8000001,
,,,17.9009978E-3,11.1103992,,,,,17.9009978E-3,-2.0000000,
,,,17.9011989E-3,10.9312000,,,,,17.9011989E-3,-2.0000000,
,,,17.9013982E-3,10.9312000,,,,,17.9013982E-3,-2.0000000,
,,,17.9015994E-3,10.5727997,,,,,17.9015994E-3,-1.8000001,
,,,17.9017987E-3,10.7519999,,,,,17.9017987E-3,-1.6000000,
,,,17.9019980E-3,10.8415995,,,,,17.9019980E-3,-1.8000001,
,,,17.9021992E-3,10.5727997,,,,,17.9021992E-3,-1.8000001,
,,,17.9023985E-3,10.3935995,,,,,17.9023985E-3,-1.8000001,
,,,17.9025978E-3,10.3039999,,,,,17.9025978E-3,-2.0000000,
,,,17.9027990E-3,10.1247997,,,,,17.9027990E-3,-1.8000001,
,,,17.9029983E-3,9.855999947,,,,,17.9029983E-3,-2.0000000,
,,,17.9031994E-3,9.945599556,,,,,17.9031994E-3,-1.8000001,
,,,17.9033987E-3,9.766399384,,,,,17.9033987E-3,-1.6000000,
,,,17.9035980E-3,9.676799774,,,,,17.9035980E-3,-1.8000001,
,,,17.9037992E-3,9.497599602,,,,,17.9037992E-3,-1.6000000,
,,,17.9039985E-3,9.407999992,,,,,17.9039985E-3,-1.8000001,
,,,17.9041978E-3,9.407999992,,,,,17.9041978E-3,-1.8000001,
,,,17.9043990E-3,9.139199257,,,,,17.9043990E-3,-2.0000000,
,,,17.9045983E-3,9.049599648,,,,,17.9045983E-3,-1.8000001,
,,,17.9047994E-3,9.049599648,,,,,17.9047994E-3,-1.8000001,
,,,17.9049987E-3,9.049599648,,,,,17.9049987E-3,-1.6000000,
,,,17.9051980E-3,8.870399475,,,,,17.9051980E-3,-1.8000001,
,,,17.9053992E-3,8.691199303,,,,,17.9053992E-3,-1.6000000,
,,,17.9055985E-3,8.691199303,,,,,17.9055985E-3,-1.8000001,
,,,17.9057978E-3,8.332799911,,,,,17.9057978E-3,-1.8000001,
,,,17.9059990E-3,8.691199303,,,,,17.9059990E-3,-1.8000001,
,,,17.9061983E-3,8.691199303,,,,,17.9061983E-3,-1.6000000,
,,,17.9063994E-3,8.064000130,,,,,17.9063994E-3,-1.4000000,
,,,17.9065987E-3,8.243199348,,,,,17.9065987E-3,-1.6000000,
,,,17.9067980E-3,7.974399567,,,,,17.9067980E-3,-1.6000000,
,,,17.9069992E-3,8.064000130,,,,,17.9069992E-3,-1.4000000,
,,,17.9071985E-3,7.884799957,,,,,17.9071985E-3,-1.8000001,
,,,17.9073978E-3,7.974399567,,,,,17.9073978E-3,-1.6000000,
,,,17.9075990E-3,7.795199871,,,,,17.9075990E-3,-1.8000001,
,,,17.9077983E-3,7.705599785,,,,,17.9077983E-3,-1.6000000,
,,,17.9079995E-3,7.705599785,,,,,17.9079995E-3,-1.6000000,
,,,17.9081988E-3,7.526399612,,,,,17.9081988E-3,-1.6000000,
,,,17.9083981E-3,7.436799526,,,,,17.9083981E-3,-1.8000001,
,,,17.9085992E-3,7.25759983,,,,,17.9085992E-3,-1.4000000,
,,,17.9087985E-3,7.25759983,,,,,17.9087985E-3,-1.8000001,
,,,17.9089978E-3,7.34719992,,,,,17.9089978E-3,-1.8000001,
,,,17.9091990E-3,6.89919996,,,,,17.9091990E-3,-1.6000000,
,,,17.9093983E-3,6.98879957,,,,,17.9093983E-3,-1.6000000,
,,,17.9095995E-3,6.80959988,,,,,17.9095995E-3,-1.4000000,
,,,17.9097988E-3,6.71999979,,,,,17.9097988E-3,-1.6000000,
,,,17.9099981E-3,6.63039970,,,,,17.9099981E-3,-1.4000000,
,,,17.9101992E-3,6.63039970,,,,,17.9101992E-3,-1.4000000,
,,,17.9103985E-3,6.54079962,,,,,17.9103985E-3,-1.4000000,
,,,17.9105978E-3,6.63039970,,,,,17.9105978E-3,-1.6000000,
,,,17.9107990E-3,6.45119953,,,,,17.9107990E-3,-1.6000000,
,,,17.9109983E-3,6.27199984,,,,,17.9109983E-3,-1.4000000,
,,,17.9111995E-3,6.27199984,,,,,17.9111995E-3,-1.6000000,
,,,17.9113988E-3,6.36159992,,,,,17.9113988E-3,-1.4000000,
,,,17.9115981E-3,6.09279966,,,,,17.9115981E-3,-1.4000000,
,,,17.9117993E-3,6.09279966,,,,,17.9117993E-3,-1.6000000,
,,,17.9119986E-3,6.00319958,,,,,17.9119986E-3,-1.6000000,
,,,17.9121979E-3,6.00319958,,,,,17.9121979E-3,-1.6000000,
,,,17.9123990E-3,5.82399988,,,,,17.9123990E-3,-1.6000000,
,,,17.9125983E-3,5.91359997,,,,,17.9125983E-3,-1.4000000,
,,,17.9127995E-3,5.64479971,,,,,17.9127995E-3,-1.4000000,
,,,17.9129988E-3,5.64479971,,,,,17.9129988E-3,-1.6000000,
,,,17.9131981E-3,5.55519962,,,,,17.9131981E-3,-1.4000000,
,,,17.9133993E-3,5.55519962,,,,,17.9133993E-3,-1.6000000,
,,,17.9135986E-3,5.37599993,,,,,17.9135986E-3,-1.6000000,
,,,17.9137979E-3,5.37599993,,,,,17.9137979E-3,-1.4000000,
,,,17.9139990E-3,5.28639984,,,,,17.9139990E-3,-1.4000000,
,,,17.9141983E-3,5.55519962,,,,,17.9141983E-3,-1.6000000,
,,,17.9143995E-3,5.19679976,,,,,17.9143995E-3,-1.4000000,
,,,17.9145988E-3,5.01760006,,,,,17.9145988E-3,-1.6000000,
,,,17.9147981E-3,5.01760006,,,,,17.9147981E-3,-1.4000000,
,,,17.9149993E-3,5.10719967,,,,,17.9149993E-3,-1.4000000,
,,,17.9151986E-3,4.92799997,,,,,17.9151986E-3,-1.6000000,
,,,17.9153979E-3,4.92799997,,,,,17.9153979E-3,-1.4000000,
,,,17.9155990E-3,4.92799997,,,,,17.9155990E-3,-1.6000000,
,,,17.9157984E-3,4.56959963,,,,,17.9157984E-3,-1.4000000,
,,,17.9159995E-3,4.48000002,,,,,17.9159995E-3,-1.4000000,
,,,17.9161988E-3,4.65919971,,,,,17.9161988E-3,-1.4000000,
,,,17.9163981E-3,4.83839989,,,,,17.9163981E-3,-1.6000000,
,,,17.9165993E-3,4.65919971,,,,,17.9165993E-3,-1.2000000,
,,,17.9167986E-3,4.56959963,,,,,17.9167986E-3,-1.4000000,
,,,17.9169979E-3,4.48000002,,,,,17.9169979E-3,-1.2000000,
,,,17.9171991E-3,4.65919971,,,,,17.9171991E-3,-1.4000000,
,,,17.9173984E-3,4.21119976,,,,,17.9173984E-3,-1.4000000,
,,,17.9175995E-3,4.21119976,,,,,17.9175995E-3,-1.4000000,
,,,17.9177988E-3,4.30079985,,,,,17.9177988E-3,-1.6000000,
,,,17.9179981E-3,4.30079985,,,,,17.9179981E-3,-1.6000000,
,,,17.9181993E-3,4.03200006,,,,,17.9181993E-3,-1.2000000,
,,,17.9183986E-3,4.30079985,,,,,17.9183986E-3,-1.4000000,
,,,17.9185979E-3,3.94239998,,,,,17.9185979E-3,-1.6000000,
,,,17.9187991E-3,3.94239998,,,,,17.9187991E-3,-1.4000000,
,,,17.9189984E-3,3.85279989,,,,,17.9189984E-3,-1.4000000,
,,,17.9191995E-3,3.94239998,,,,,17.9191995E-3,-1.6000000,
,,,17.9193988E-3,3.85279989,,,,,17.9193988E-3,-1.4000000,
,,,17.9195981E-3,3.94239998,,,,,17.9195981E-3,-1.4000000,
,,,17.9197993E-3,3.85279989,,,,,17.9197993E-3,-1.4000000,
,,,17.9199986E-3,3.67359996,,,,,17.9199986E-3,-1.2000000,
,,,17.9201979E-3,3.58399987,,,,,17.9201979E-3,-1.2000000,
,,,17.9203991E-3,3.67359996,,,,,17.9203991E-3,-1.4000000,
,,,17.9205984E-3,3.76319981,,,,,17.9205984E-3,-1.2000000,
,,,17.9207977E-3,3.49439979,,,,,17.9207977E-3,-1.4000000,
,,,17.9209989E-3,3.31519985,,,,,17.9209989E-3,-1.4000000,
,,,17.9211982E-3,3.49439979,,,,,17.9211982E-3,-1.2000000,
,,,17.9213993E-3,3.31519985,,,,,17.9213993E-3,-1.4000000,
,,,17.9215986E-3,3.49439979,,,,,17.9215986E-3,-1.4000000,
,,,17.9217979E-3,3.31519985,,,,,17.9217979E-3,-1.4000000,
,,,17.9219991E-3,3.40479994,,,,,17.9219991E-3,-1.2000000,
,,,17.9221984E-3,3.49439979,,,,,17.9221984E-3,-1.4000000,
,,,17.9223977E-3,3.40479994,,,,,17.9223977E-3,-1.2000000,
,,,17.9225989E-3,3.40479994,,,,,17.9225989E-3,-1.2000000,
,,,17.9227982E-3,3.31519985,,,,,17.9227982E-3,-1.2000000,
,,,17.9229993E-3,3.22559977,,,,,17.9229993E-3,-1.2000000,
,,,17.9231986E-3,3.04639983,,,,,17.9231986E-3,-1.4000000,
,,,17.9233979E-3,3.04639983,,,,,17.9233979E-3,-1.2000000,
,,,17.9235991E-3,2.95679998,,,,,17.9235991E-3,-1.4000000,
,,,17.9237984E-3,2.86719990,,,,,17.9237984E-3,-1.4000000,
,,,17.9239977E-3,2.86719990,,,,,17.9239977E-3,-1.4000000,
,,,17.9241989E-3,2.6880000,,,,,17.9241989E-3,-1.2000000,
,,,17.9243982E-3,2.86719990,,,,,17.9243982E-3,-1.4000000,
,,,17.9245993E-3,2.95679998,,,,,17.9245993E-3,-1.2000000,
