week 3/csv_files/Q2/33.150 k hz.csv

Record Length,2500,Points,2.0200000E-3,8.800000191,,Record Length,2500,Points,2.0200000E-3,-74.400001526,
Sample Interval,9.999999939E-9,s,2.0200100E-3,8.800000191,,Sample Interval,9.999999939E-9,s,2.0200100E-3,-73.599998474,
Trigger Point,-202.00001227E3,Samples,2.0200200E-3,8.800000191,,Trigger Point,-202.00001227E3,Samples,2.0200200E-3,-73.599998474,
,,,2.0200300E-3,8.800000191,,,,,2.0200300E-3,-74.400001526,
,,,2.0200401E-3,8.800000191,,,,,2.0200401E-3,-74.400001526,
,,,2.0200501E-3,8.400000572,,,,,2.0200501E-3,-73.599998474,
Source,CH1,,2.0200601E-3,8.800000191,,Source,CH2,,2.0200601E-3,-75.200004578,
Vertical Units,Volts,,2.0200701E-3,8.800000191,,Vertical Units,Volts,,2.0200701E-3,-73.599998474,
Vertical Scale,10.0000001,,2.0200801E-3,8.800000191,,Vertical Scale,20.0000003,,2.0200801E-3,-73.599998474,
Vertical Offset,0,,2.0200901E-3,9.199999809,,Vertical Offset,0,,2.0200901E-3,-73.599998474,
Horizontal Units,s,,2.0200999E-3,8.800000191,,Horizontal Units,s,,2.0200999E-3,-73.599998474,
Horizontal Scale,2.5000000E-6,,2.0201099E-3,8.800000191,,Horizontal Scale,2.5000000E-6,,2.0201099E-3,-72.000000000,
Pt Fmt,Y,,2.0201199E-3,8.800000191,,Pt Fmt,Y,,2.0201199E-3,-73.599998474,
Yzero,80.000000000E-3,,2.0201299E-3,8.400000572,,Yzero,-1.0400000,,2.0201299E-3,-74.400001526,
Probe Atten,10.0000000,,2.0201399E-3,8.400000572,,Probe Atten,10.0000000,,2.0201399E-3,-73.599998474,
,,,2.0201500E-3,8.800000191,,,,,2.0201500E-3,-73.599998474,
Note,TDS 2012C - 10:43:46   29/05/2022,,2.0201600E-3,8.400000572,,Note,TDS 2012C - 10:43:46   29/05/2022,,2.0201600E-3,-73.599998474,
,,,2.0201700E-3,8.800000191,,,,,2.0201700E-3,-74.400001526,
,,,2.0201800E-3,8.800000191,,,,,2.0201800E-3,-74.400001526,
,,,2.0201900E-3,8.400000572,,,,,2.0201900E-3,-72.800003052,
,,,2.0202000E-3,8.400000572,,,,,2.0202000E-3,-72.800003052,
,,,2.0202100E-3,8.800000191,,,,,2.0202100E-3,-73.599998474,
,,,2.0202200E-3,8.800000191,,,,,2.0202200E-3,-72.800003052,
,,,2.0202301E-3,8.800000191,,,,,2.0202301E-3,-72.000000000,
,,,2.0202401E-3,8.800000191,,,,,2.0202401E-3,-72.800003052,
,,,2.0202501E-3,9.199999809,,,,,2.0202501E-3,-72.800003052,
,,,2.0202601E-3,9.199999809,,,,,2.0202601E-3,-72.800003052,
,,,2.0202701E-3,9.199999809,,,,,2.0202701E-3,-73.599998474,
,,,2.0202801E-3,9.199999809,,,,,2.0202801E-3,-72.800003052,
,,,2.0202901E-3,8.800000191,,,,,2.0202901E-3,-72.000000000,
,,,2.0202999E-3,8.800000191,,,,,2.0202999E-3,-72.000000000,
,,,2.0203099E-3,8.800000191,,,,,2.0203099E-3,-72.000000000,
,,,2.0203199E-3,8.800000191,,,,,2.0203199E-3,-72.800003052,
,,,2.0203299E-3,9.199999809,,,,,2.0203299E-3,-72.000000000,
,,,2.0203399E-3,9.199999809,,,,,2.0203399E-3,-72.000000000,
,,,2.0203500E-3,9.199999809,,,,,2.0203500E-3,-72.800003052,
,,,2.0203600E-3,9.199999809,,,,,2.0203600E-3,-72.800003052,
,,,2.0203700E-3,9.199999809,,,,,2.0203700E-3,-72.000000000,
,,,2.0203800E-3,9.199999809,,,,,2.0203800E-3,-72.000000000,
,,,2.0203900E-3,9.199999809,,,,,2.0203900E-3,-72.000000000,
,,,2.0204000E-3,8.800000191,,,,,2.0204000E-3,-72.000000000,
,,,2.0204100E-3,9.600000381,,,,,2.0204100E-3,-72.800003052,
,,,2.0204200E-3,9.199999809,,,,,2.0204200E-3,-72.000000000,
,,,2.0204301E-3,9.600000381,,,,,2.0204301E-3,-70.400001526,
,,,2.0204401E-3,9.199999809,,,,,2.0204401E-3,-71.200004578,
,,,2.0204501E-3,9.199999809,,,,,2.0204501E-3,-71.200004578,
,,,2.0204601E-3,9.600000381,,,,,2.0204601E-3,-71.200004578,
,,,2.0204701E-3,9.199999809,,,,,2.0204701E-3,-71.200004578,
,,,2.0204801E-3,9.199999809,,,,,2.0204801E-3,-70.400001526,
,,,2.0204901E-3,9.199999809,,,,,2.0204901E-3,-71.200004578,
,,,2.0204999E-3,9.600000381,,,,,2.0204999E-3,-71.200004578,
,,,2.0205099E-3,9.600000381,,,,,2.0205099E-3,-71.200004578,
,,,2.0205199E-3,8.800000191,,,,,2.0205199E-3,-70.400001526,
,,,2.0205299E-3,9.199999809,,,,,2.0205299E-3,-72.000000000,
,,,2.0205399E-3,9.600000381,,,,,2.0205399E-3,-71.200004578,
,,,2.0205500E-3,9.199999809,,,,,2.0205500E-3,-70.400001526,
,,,2.0205600E-3,8.800000191,,,,,2.0205600E-3,-71.200004578,
,,,2.0205700E-3,9.199999809,,,,,2.0205700E-3,-70.400001526,
,,,2.0205800E-3,8.800000191,,,,,2.0205800E-3,-71.200004578,
,,,2.0205900E-3,10.0000000,,,,,2.0205900E-3,-70.400001526,
,,,2.0206000E-3,9.199999809,,,,,2.0206000E-3,-71.200004578,
,,,2.0206100E-3,9.600000381,,,,,2.0206100E-3,-69.599998474,
,,,2.0206200E-3,9.199999809,,,,,2.0206200E-3,-70.400001526,
,,,2.0206301E-3,9.199999809,,,,,2.0206301E-3,-69.599998474,
,,,2.0206401E-3,8.800000191,,,,,2.0206401E-3,-70.400001526,
,,,2.0206501E-3,9.199999809,,,,,2.0206501E-3,-71.200004578,
,,,2.0206601E-3,9.199999809,,,,,2.0206601E-3,-69.599998474,
,,,2.0206701E-3,9.199999809,,,,,2.0206701E-3,-69.599998474,
,,,2.0206801E-3,9.600000381,,,,,2.0206801E-3,-68.800003052,
,,,2.0206901E-3,9.199999809,,,,,2.0206901E-3,-70.400001526,
,,,2.0206999E-3,9.600000381,,,,,2.0206999E-3,-69.599998474,
,,,2.0207099E-3,10.0000000,,,,,2.0207099E-3,-69.599998474,
,,,2.0207199E-3,9.199999809,,,,,2.0207199E-3,-69.599998474,
,,,2.0207299E-3,9.199999809,,,,,2.0207299E-3,-69.599998474,
,,,2.0207400E-3,9.199999809,,,,,2.0207400E-3,-69.599998474,
,,,2.0207500E-3,9.199999809,,,,,2.0207500E-3,-68.000000000,
,,,2.0207600E-3,9.199999809,,,,,2.0207600E-3,-68.800003052,
,,,2.0207700E-3,9.600000381,,,,,2.0207700E-3,-68.800003052,
,,,2.0207800E-3,9.199999809,,,,,2.0207800E-3,-68.800003052,
,,,2.0207900E-3,9.600000381,,,,,2.0207900E-3,-68.800003052,
,,,2.0208000E-3,9.199999809,,,,,2.0208000E-3,-68.800003052,
,,,2.0208100E-3,9.600000381,,,,,2.0208100E-3,-69.599998474,
,,,2.0208200E-3,9.600000381,,,,,2.0208200E-3,-68.000000000,
,,,2.0208301E-3,9.600000381,,,,,2.0208301E-3,-68.000000000,
,,,2.0208401E-3,9.600000381,,,,,2.0208401E-3,-68.000000000,
,,,2.0208501E-3,9.199999809,,,,,2.0208501E-3,-68.800003052,
,,,2.0208601E-3,9.600000381,,,,,2.0208601E-3,-68.800003052,
,,,2.0208701E-3,9.600000381,,,,,2.0208701E-3,-68.800003052,
,,,2.0208801E-3,9.199999809,,,,,2.0208801E-3,-67.200004578,
,,,2.0208901E-3,9.199999809,,,,,2.0208901E-3,-68.800003052,
,,,2.0208999E-3,9.600000381,,,,,2.0208999E-3,-68.000000000,
,,,2.0209099E-3,9.199999809,,,,,2.0209099E-3,-67.200004578,
,,,2.0209199E-3,9.600000381,,,,,2.0209199E-3,-68.000000000,
,,,2.0209299E-3,9.600000381,,,,,2.0209299E-3,-68.000000000,
,,,2.0209400E-3,9.600000381,,,,,2.0209400E-3,-68.000000000,
,,,2.0209500E-3,9.600000381,,,,,2.0209500E-3,-68.000000000,
,,,2.0209600E-3,9.600000381,,,,,2.0209600E-3,-67.200004578,
,,,2.0209700E-3,9.600000381,,,,,2.0209700E-3,-68.000000000,
,,,2.0209800E-3,9.199999809,,,,,2.0209800E-3,-67.200004578,
,,,2.0209900E-3,10.0000000,,,,,2.0209900E-3,-67.200004578,
,,,2.0210000E-3,9.600000381,,,,,2.0210000E-3,-66.400001526,
,,,2.0210100E-3,10.0000000,,,,,2.0210100E-3,-66.400001526,
,,,2.0210200E-3,9.600000381,,,,,2.0210200E-3,-66.400001526,
,,,2.0210301E-3,9.600000381,,,,,2.0210301E-3,-68.000000000,
,,,2.0210401E-3,10.0000000,,,,,2.0210401E-3,-66.400001526,
,,,2.0210501E-3,9.600000381,,,,,2.0210501E-3,-67.200004578,
,,,2.0210601E-3,9.600000381,,,,,2.0210601E-3,-66.400001526,
,,,2.0210701E-3,10.0000000,,,,,2.0210701E-3,-66.400001526,
,,,2.0210801E-3,10.0000000,,,,,2.0210801E-3,-66.400001526,
,,,2.0210901E-3,9.199999809,,,,,2.0210901E-3,-65.599998474,
,,,2.0210999E-3,9.199999809,,,,,2.0210999E-3,-65.599998474,
,,,2.0211099E-3,10.4000006,,,,,2.0211099E-3,-67.200004578,
,,,2.0211199E-3,9.199999809,,,,,2.0211199E-3,-65.599998474,
,,,2.0211299E-3,9.199999809,,,,,2.0211299E-3,-65.599998474,
,,,2.0211400E-3,10.0000000,,,,,2.0211400E-3,-65.599998474,
,,,2.0211500E-3,10.0000000,,,,,2.0211500E-3,-66.400001526,
,,,2.0211600E-3,10.0000000,,,,,2.0211600E-3,-66.400001526,
,,,2.0211700E-3,10.0000000,,,,,2.0211700E-3,-65.599998474,
,,,2.0211800E-3,9.600000381,,,,,2.0211800E-3,-64.800003052,
,,,2.0211900E-3,10.0000000,,,,,2.0211900E-3,-64.800003052,
,,,2.0212000E-3,10.0000000,,,,,2.0212000E-3,-64.800003052,
,,,2.0212100E-3,9.600000381,,,,,2.0212100E-3,-65.599998474,
,,,2.0212200E-3,10.0000000,,,,,2.0212200E-3,-66.400001526,
,,,2.0212301E-3,10.0000000,,,,,2.0212301E-3,-64.800003052,
,,,2.0212401E-3,10.0000000,,,,,2.0212401E-3,-64.800003052,
,,,2.0212501E-3,10.0000000,,,,,2.0212501E-3,-64.800003052,
,,,2.0212601E-3,10.0000000,,,,,2.0212601E-3,-65.599998474,
,,,2.0212701E-3,10.4000006,,,,,2.0212701E-3,-64.000000000,
,,,2.0212801E-3,9.600000381,,,,,2.0212801E-3,-64.000000000,
,,,2.0212901E-3,10.0000000,,,,,2.0212901E-3,-64.000000000,
,,,2.0212999E-3,9.600000381,,,,,2.0212999E-3,-63.200000763,
,,,2.0213099E-3,10.0000000,,,,,2.0213099E-3,-64.800003052,
,,,2.0213199E-3,10.0000000,,,,,2.0213199E-3,-64.000000000,
,,,2.0213299E-3,10.4000006,,,,,2.0213299E-3,-64.000000000,
,,,2.0213400E-3,10.4000006,,,,,2.0213400E-3,-64.000000000,
,,,2.0213500E-3,10.0000000,,,,,2.0213500E-3,-63.200000763,
,,,2.0213600E-3,9.600000381,,,,,2.0213600E-3,-64.000000000,
,,,2.0213700E-3,10.4000006,,,,,2.0213700E-3,-63.200000763,
,,,2.0213800E-3,10.0000000,,,,,2.0213800E-3,-62.400001526,
,,,2.0213900E-3,9.600000381,,,,,2.0213900E-3,-62.400001526,
,,,2.0214000E-3,10.4000006,,,,,2.0214000E-3,-63.200000763,
,,,2.0214100E-3,9.600000381,,,,,2.0214100E-3,-63.200000763,
,,,2.0214200E-3,10.0000000,,,,,2.0214200E-3,-62.400001526,
,,,2.0214301E-3,10.4000006,,,,,2.0214301E-3,-63.200000763,
,,,2.0214401E-3,10.0000000,,,,,2.0214401E-3,-62.400001526,
,,,2.0214501E-3,10.0000000,,,,,2.0214501E-3,-62.400001526,
,,,2.0214601E-3,10.8000002,,,,,2.0214601E-3,-62.400001526,
,,,2.0214701E-3,10.0000000,,,,,2.0214701E-3,-62.400001526,
,,,2.0214801E-3,10.0000000,,,,,2.0214801E-3,-62.400001526,
,,,2.0214901E-3,10.4000006,,,,,2.0214901E-3,-62.400001526,
,,,2.0214999E-3,10.0000000,,,,,2.0214999E-3,-62.400001526,
,,,2.0215099E-3,10.0000000,,,,,2.0215099E-3,-62.400001526,
,,,2.0215199E-3,10.4000006,,,,,2.0215199E-3,-62.400001526,
,,,2.0215299E-3,10.0000000,,,,,2.0215299E-3,-61.600002289,
,,,2.0215400E-3,9.600000381,,,,,2.0215400E-3,-61.600002289,
,,,2.0215500E-3,10.0000000,,,,,2.0215500E-3,-61.600002289,
,,,2.0215600E-3,10.4000006,,,,,2.0215600E-3,-62.400001526,
,,,2.0215700E-3,10.0000000,,,,,2.0215700E-3,-60.000000000,
,,,2.0215800E-3,10.4000006,,,,,2.0215800E-3,-60.799999237,
,,,2.0215900E-3,9.600000381,,,,,2.0215900E-3,-62.400001526,
,,,2.0216000E-3,10.4000006,,,,,2.0216000E-3,-60.000000000,
,,,2.0216100E-3,10.4000006,,,,,2.0216100E-3,-61.600002289,
,,,2.0216201E-3,10.4000006,,,,,2.0216201E-3,-60.000000000,
,,,2.0216301E-3,10.4000006,,,,,2.0216301E-3,-60.799999237,
,,,2.0216401E-3,10.0000000,,,,,2.0216401E-3,-61.600002289,
,,,2.0216501E-3,10.4000006,,,,,2.0216501E-3,-60.000000000,
,,,2.0216601E-3,10.8000002,,,,,2.0216601E-3,-60.000000000,
,,,2.0216701E-3,10.8000002,,,,,2.0216701E-3,-60.000000000,
,,,2.0216801E-3,10.4000006,,,,,2.0216801E-3,-60.799999237,
,,,2.0216899E-3,10.4000006,,,,,2.0216899E-3,-60.799999237,
,,,2.0216999E-3,10.4000006,,,,,2.0216999E-3,-60.000000000,
,,,2.0217099E-3,10.0000000,,,,,2.0217099E-3,-59.200000763,
,,,2.0217199E-3,10.4000006,,,,,2.0217199E-3,-60.799999237,
,,,2.0217299E-3,10.4000006,,,,,2.0217299E-3,-59.200000763,
,,,2.0217400E-3,10.4000006,,,,,2.0217400E-3,-60.000000000,
,,,2.0217500E-3,10.8000002,,,,,2.0217500E-3,-59.200000763,
,,,2.0217600E-3,10.4000006,,,,,2.0217600E-3,-58.400001526,
,,,2.0217700E-3,10.8000002,,,,,2.0217700E-3,-59.200000763,
,,,2.0217800E-3,11.1999998,,,,,2.0217800E-3,-59.200000763,
,,,2.0217900E-3,10.4000006,,,,,2.0217900E-3,-59.200000763,
,,,2.0218000E-3,10.4000006,,,,,2.0218000E-3,-58.400001526,
,,,2.0218100E-3,10.8000002,,,,,2.0218100E-3,-58.400001526,
,,,2.0218201E-3,10.0000000,,,,,2.0218201E-3,-59.200000763,
,,,2.0218301E-3,10.4000006,,,,,2.0218301E-3,-57.600002289,
,,,2.0218401E-3,10.8000002,,,,,2.0218401E-3,-57.600002289,
,,,2.0218501E-3,10.4000006,,,,,2.0218501E-3,-58.400001526,
,,,2.0218601E-3,10.4000006,,,,,2.0218601E-3,-58.400001526,
,,,2.0218701E-3,10.4000006,,,,,2.0218701E-3,-57.600002289,
,,,2.0218801E-3,10.0000000,,,,,2.0218801E-3,-57.600002289,
,,,2.0218899E-3,10.4000006,,,,,2.0218899E-3,-57.600002289,
,,,2.0218999E-3,10.8000002,,,,,2.0218999E-3,-57.600002289,
,,,2.0219099E-3,10.8000002,,,,,2.0219099E-3,-57.600002289,
,,,2.0219199E-3,10.8000002,,,,,2.0219199E-3,-56.799999237,
,,,2.0219299E-3,10.8000002,,,,,2.0219299E-3,-57.600002289,
,,,2.0219400E-3,10.0000000,,,,,2.0219400E-3,-56.799999237,
,,,2.0219500E-3,10.8000002,,,,,2.0219500E-3,-57.600002289,
,,,2.0219600E-3,10.8000002,,,,,2.0219600E-3,-56.799999237,
,,,2.0219700E-3,10.8000002,,,,,2.0219700E-3,-56.799999237,
,,,2.0219800E-3,10.8000002,,,,,2.0219800E-3,-56.000000000,
,,,2.0219900E-3,11.1999998,,,,,2.0219900E-3,-56.000000000,
,,,2.0220000E-3,10.8000002,,,,,2.0220000E-3,-56.000000000,
,,,2.0220100E-3,11.1999998,,,,,2.0220100E-3,-56.000000000,
,,,2.0220201E-3,10.4000006,,,,,2.0220201E-3,-56.799999237,
,,,2.0220301E-3,10.8000002,,,,,2.0220301E-3,-56.000000000,
,,,2.0220401E-3,11.1999998,,,,,2.0220401E-3,-56.000000000,
,,,2.0220501E-3,10.8000002,,,,,2.0220501E-3,-56.799999237,
,,,2.0220601E-3,10.8000002,,,,,2.0220601E-3,-56.000000000,
,,,2.0220701E-3,10.8000002,,,,,2.0220701E-3,-56.000000000,
,,,2.0220801E-3,10.0000000,,,,,2.0220801E-3,-55.200000763,
,,,2.0220899E-3,10.4000006,,,,,2.0220899E-3,-54.40000153,
,,,2.0220999E-3,11.1999998,,,,,2.0220999E-3,-56.000000000,
,,,2.0221099E-3,10.4000006,,,,,2.0221099E-3,-55.200000763,
,,,2.0221199E-3,10.8000002,,,,,2.0221199E-3,-54.40000153,
,,,2.0221299E-3,10.8000002,,,,,2.0221299E-3,-56.000000000,
,,,2.0221400E-3,10.8000002,,,,,2.0221400E-3,-54.40000153,
,,,2.0221500E-3,10.8000002,,,,,2.0221500E-3,-55.200000763,
,,,2.0221600E-3,10.8000002,,,,,2.0221600E-3,-54.40000153,
,,,2.0221700E-3,10.8000002,,,,,2.0221700E-3,-54.40000153,
,,,2.0221800E-3,10.8000002,,,,,2.0221800E-3,-55.200000763,
,,,2.0221900E-3,10.4000006,,,,,2.0221900E-3,-53.60000229,
,,,2.0222000E-3,10.4000006,,,,,2.0222000E-3,-53.60000229,
,,,2.0222100E-3,10.4000006,,,,,2.0222100E-3,-54.40000153,
,,,2.0222201E-3,10.8000002,,,,,2.0222201E-3,-52.79999924,
,,,2.0222301E-3,10.8000002,,,,,2.0222301E-3,-53.60000229,
,,,2.0222401E-3,11.1999998,,,,,2.0222401E-3,-54.40000153,
,,,2.0222501E-3,10.8000002,,,,,2.0222501E-3,-54.40000153,
,,,2.0222601E-3,11.1999998,,,,,2.0222601E-3,-52.79999924,
,,,2.0222701E-3,10.4000006,,,,,2.0222701E-3,-52.79999924,
,,,2.0222801E-3,10.8000002,,,,,2.0222801E-3,-53.60000229,
,,,2.0222899E-3,10.8000002,,,,,2.0222899E-3,-52.79999924,
,,,2.0222999E-3,10.8000002,,,,,2.0222999E-3,-52.79999924,
,,,2.0223099E-3,11.1999998,,,,,2.0223099E-3,-52.00000000,
,,,2.0223199E-3,11.1999998,,,,,2.0223199E-3,-52.00000000,
,,,2.0223300E-3,11.1999998,,,,,2.0223300E-3,-52.00000000,
,,,2.0223400E-3,11.1999998,,,,,2.0223400E-3,-51.20000076,
,,,2.0223500E-3,10.4000006,,,,,2.0223500E-3,-52.00000000,
,,,2.0223600E-3,11.1999998,,,,,2.0223600E-3,-52.00000000,
,,,2.0223700E-3,11.1999998,,,,,2.0223700E-3,-52.00000000,
,,,2.0223800E-3,10.4000006,,,,,2.0223800E-3,-51.20000076,
,,,2.0223900E-3,11.1999998,,,,,2.0223900E-3,-51.20000076,
,,,2.0224000E-3,11.1999998,,,,,2.0224000E-3,-51.20000076,
,,,2.0224100E-3,10.8000002,,,,,2.0224100E-3,-51.20000076,
,,,2.0224201E-3,10.8000002,,,,,2.0224201E-3,-50.40000153,
,,,2.0224301E-3,10.8000002,,,,,2.0224301E-3,-50.40000153,
,,,2.0224401E-3,10.8000002,,,,,2.0224401E-3,-51.20000076,
,,,2.0224501E-3,11.1999998,,,,,2.0224501E-3,-50.40000153,
,,,2.0224601E-3,11.6000004,,,,,2.0224601E-3,-50.40000153,
,,,2.0224701E-3,11.6000004,,,,,2.0224701E-3,-50.40000153,
,,,2.0224801E-3,11.1999998,,,,,2.0224801E-3,-51.20000076,
,,,2.0224899E-3,11.1999998,,,,,2.0224899E-3,-49.60000229,
,,,2.0224999E-3,10.8000002,,,,,2.0224999E-3,-50.40000153,
,,,2.0225099E-3,10.8000002,,,,,2.0225099E-3,-49.60000229,
,,,2.0225199E-3,11.1999998,,,,,2.0225199E-3,-49.60000229,
,,,2.0225300E-3,10.8000002,,,,,2.0225300E-3,-50.40000153,
,,,2.0225400E-3,11.1999998,,,,,2.0225400E-3,-50.40000153,
,,,2.0225500E-3,11.1999998,,,,,2.0225500E-3,-49.60000229,
,,,2.0225600E-3,10.8000002,,,,,2.0225600E-3,-48.00000000,
,,,2.0225700E-3,11.1999998,,,,,2.0225700E-3,-49.60000229,
,,,2.0225800E-3,11.1999998,,,,,2.0225800E-3,-49.60000229,
,,,2.0225900E-3,10.8000002,,,,,2.0225900E-3,-47.20000076,
,,,2.0226000E-3,11.1999998,,,,,2.0226000E-3,-50.40000153,
,,,2.0226100E-3,11.6000004,,,,,2.0226100E-3,-48.00000000,
,,,2.0226201E-3,10.8000002,,,,,2.0226201E-3,-48.00000000,
,,,2.0226301E-3,11.6000004,,,,,2.0226301E-3,-48.79999924,
,,,2.0226401E-3,10.8000002,,,,,2.0226401E-3,-48.00000000,
,,,2.0226501E-3,11.6000004,,,,,2.0226501E-3,-48.00000000,
,,,2.0226601E-3,11.1999998,,,,,2.0226601E-3,-48.00000000,
,,,2.0226701E-3,11.1999998,,,,,2.0226701E-3,-48.00000000,
,,,2.0226801E-3,11.1999998,,,,,2.0226801E-3,-48.00000000,
,,,2.0226899E-3,11.1999998,,,,,2.0226899E-3,-47.20000076,
,,,2.0226999E-3,11.6000004,,,,,2.0226999E-3,-47.20000076,
,,,2.0227099E-3,11.1999998,,,,,2.0227099E-3,-48.00000000,
,,,2.0227199E-3,11.1999998,,,,,2.0227199E-3,-48.00000000,
,,,2.0227300E-3,10.8000002,,,,,2.0227300E-3,-47.20000076,
,,,2.0227400E-3,11.1999998,,,,,2.0227400E-3,-46.40000153,
,,,2.0227500E-3,11.1999998,,,,,2.0227500E-3,-46.40000153,
,,,2.0227600E-3,11.1999998,,,,,2.0227600E-3,-47.20000076,
,,,2.0227700E-3,11.6000004,,,,,2.0227700E-3,-45.60000229,
,,,2.0227800E-3,11.1999998,,,,,2.0227800E-3,-47.20000076,
,,,2.0227900E-3,10.4000006,,,,,2.0227900E-3,-46.40000153,
,,,2.0228000E-3,10.8000002,,,,,2.0228000E-3,-45.60000229,
,,,2.0228100E-3,10.4000006,,,,,2.0228100E-3,-45.60000229,
,,,2.0228201E-3,11.1999998,,,,,2.0228201E-3,-46.40000153,
,,,2.0228301E-3,11.1999998,,,,,2.0228301E-3,-45.60000229,
,,,2.0228401E-3,11.1999998,,,,,2.0228401E-3,-44.79999924,
,,,2.0228501E-3,11.6000004,,,,,2.0228501E-3,-44.79999924,
,,,2.0228601E-3,11.1999998,,,,,2.0228601E-3,-44.79999924,
,,,2.0228701E-3,11.1999998,,,,,2.0228701E-3,-44.00000000,
,,,2.0228801E-3,11.6000004,,,,,2.0228801E-3,-44.79999924,
,,,2.0228899E-3,10.8000002,,,,,2.0228899E-3,-44.79999924,
,,,2.0228999E-3,11.1999998,,,,,2.0228999E-3,-44.00000000,
,,,2.0229099E-3,11.6000004,,,,,2.0229099E-3,-44.79999924,
,,,2.0229199E-3,11.6000004,,,,,2.0229199E-3,-43.20000076,
,,,2.0229300E-3,11.1999998,,,,,2.0229300E-3,-44.00000000,
,,,2.0229400E-3,11.6000004,,,,,2.0229400E-3,-44.79999924,
,,,2.0229500E-3,11.6000004,,,,,2.0229500E-3,-44.00000000,
,,,2.0229600E-3,11.1999998,,,,,2.0229600E-3,-43.20000076,
,,,2.0229700E-3,11.6000004,,,,,2.0229700E-3,-43.20000076,
,,,2.0229800E-3,11.1999998,,,,,2.0229800E-3,-43.20000076,
,,,2.0229900E-3,11.6000004,,,,,2.0229900E-3,-43.20000076,
,,,2.0230000E-3,11.1999998,,,,,2.0230000E-3,-42.40000153,
,,,2.0230100E-3,11.6000004,,,,,2.0230100E-3,-43.20000076,
,,,2.0230201E-3,11.6000004,,,,,2.0230201E-3,-43.20000076,
,,,2.0230301E-3,11.6000004,,,,,2.0230301E-3,-43.20000076,
,,,2.0230401E-3,11.6000004,,,,,2.0230401E-3,-41.60000229,
,,,2.0230501E-3,11.1999998,,,,,2.0230501E-3,-41.60000229,
,,,2.0230601E-3,11.6000004,,,,,2.0230601E-3,-42.40000153,
,,,2.0230701E-3,11.1999998,,,,,2.0230701E-3,-41.60000229,
,,,2.0230799E-3,11.6000004,,,,,2.0230799E-3,-41.60000229,
,,,2.0230899E-3,11.6000004,,,,,2.0230899E-3,-42.40000153,
,,,2.0230999E-3,11.1999998,,,,,2.0230999E-3,-41.60000229,
,,,2.0231099E-3,11.6000004,,,,,2.0231099E-3,-40.79999924,
,,,2.0231199E-3,11.6000004,,,,,2.0231199E-3,-41.60000229,
,,,2.0231300E-3,11.6000004,,,,,2.0231300E-3,-40.79999924,
,,,2.0231400E-3,11.1999998,,,,,2.0231400E-3,-41.60000229,
,,,2.0231500E-3,11.6000004,,,,,2.0231500E-3,-40.79999924,
,,,2.0231600E-3,11.6000004,,,,,2.0231600E-3,-40.79999924,
,,,2.0231700E-3,11.6000004,,,,,2.0231700E-3,-40.00000000,
,,,2.0231800E-3,12.0000000,,,,,2.0231800E-3,-40.79999924,
,,,2.0231900E-3,11.1999998,,,,,2.0231900E-3,-40.79999924,
,,,2.0232000E-3,11.6000004,,,,,2.0232000E-3,-40.00000000,
,,,2.0232101E-3,11.1999998,,,,,2.0232101E-3,-40.00000000,
,,,2.0232201E-3,11.6000004,,,,,2.0232201E-3,-40.79999924,
,,,2.0232301E-3,12.0000000,,,,,2.0232301E-3,-40.00000000,
,,,2.0232401E-3,12.0000000,,,,,2.0232401E-3,-39.20000076,
,,,2.0232501E-3,11.6000004,,,,,2.0232501E-3,-39.20000076,
,,,2.0232601E-3,11.6000004,,,,,2.0232601E-3,-38.40000153,
,,,2.0232701E-3,11.6000004,,,,,2.0232701E-3,-39.20000076,
,,,2.0232799E-3,11.6000004,,,,,2.0232799E-3,-38.40000153,
