week 3/csv_files/Q2/33.26.csv

Record Length,2500,Points,2.0172000E-3,10.0000000,,Record Length,2500,Points,2.0172000E-3,-60.799999237,
Sample Interval,9.999999939E-9,s,2.0172100E-3,10.8000002,,Sample Interval,9.999999939E-9,s,2.0172100E-3,-60.000000000,
Trigger Point,-201.72001012E3,Samples,2.0172200E-3,10.0000000,,Trigger Point,-201.72001012E3,Samples,2.0172200E-3,-60.799999237,
,,,2.0172300E-3,10.8000002,,,,,2.0172300E-3,-60.799999237,
,,,2.0172400E-3,10.0000000,,,,,2.0172400E-3,-59.200000763,
,,,2.0172501E-3,10.0000000,,,,,2.0172501E-3,-60.000000000,
Source,CH1,,2.0172601E-3,10.4000006,,Source,CH2,,2.0172601E-3,-60.799999237,
Vertical Units,Volts,,2.0172701E-3,10.0000000,,Vertical Units,Volts,,2.0172701E-3,-59.200000763,
Vertical Scale,10.0000001,,2.0172801E-3,10.0000000,,Vertical Scale,20.0000003,,2.0172801E-3,-60.799999237,
Vertical Offset,0,,2.0172901E-3,10.0000000,,Vertical Offset,0,,2.0172901E-3,-59.200000763,
Horizontal Units,s,,2.0172999E-3,10.4000006,,Horizontal Units,s,,2.0172999E-3,-59.200000763,
Horizontal Scale,2.5000000E-6,,2.0173099E-3,10.4000006,,Horizontal Scale,2.5000000E-6,,2.0173099E-3,-60.000000000,
Pt Fmt,Y,,2.0173199E-3,10.4000006,,Pt Fmt,Y,,2.0173199E-3,-58.400001526,
Yzero,80.000000000E-3,,2.0173299E-3,10.4000006,,Yzero,-1.0400000,,2.0173299E-3,-59.200000763,
Probe Atten,10.0000000,,2.0173399E-3,10.4000006,,Probe Atten,10.0000000,,2.0173399E-3,-59.200000763,
,,,2.0173499E-3,10.8000002,,,,,2.0173499E-3,-58.400001526,
Note,TDS 2012C - 10:46:14   29/05/2022,,2.0173599E-3,10.4000006,,Note,TDS 2012C - 10:46:14   29/05/2022,,2.0173599E-3,-58.400001526,
,,,2.0173700E-3,10.8000002,,,,,2.0173700E-3,-58.400001526,
,,,2.0173800E-3,10.4000006,,,,,2.0173800E-3,-60.000000000,
,,,2.0173900E-3,10.4000006,,,,,2.0173900E-3,-58.400001526,
,,,2.0174000E-3,10.4000006,,,,,2.0174000E-3,-58.400001526,
,,,2.0174100E-3,10.4000006,,,,,2.0174100E-3,-59.200000763,
,,,2.0174200E-3,10.8000002,,,,,2.0174200E-3,-57.600002289,
,,,2.0174300E-3,10.4000006,,,,,2.0174300E-3,-59.200000763,
,,,2.0174400E-3,11.1999998,,,,,2.0174400E-3,-57.600002289,
,,,2.0174501E-3,10.4000006,,,,,2.0174501E-3,-57.600002289,
,,,2.0174601E-3,10.4000006,,,,,2.0174601E-3,-57.600002289,
,,,2.0174701E-3,10.4000006,,,,,2.0174701E-3,-57.600002289,
,,,2.0174801E-3,10.4000006,,,,,2.0174801E-3,-58.400001526,
,,,2.0174901E-3,10.8000002,,,,,2.0174901E-3,-56.799999237,
,,,2.0174999E-3,10.8000002,,,,,2.0174999E-3,-57.600002289,
,,,2.0175099E-3,10.8000002,,,,,2.0175099E-3,-57.600002289,
,,,2.0175199E-3,10.8000002,,,,,2.0175199E-3,-56.799999237,
,,,2.0175299E-3,10.8000002,,,,,2.0175299E-3,-57.600002289,
,,,2.0175399E-3,10.4000006,,,,,2.0175399E-3,-56.799999237,
,,,2.0175499E-3,10.8000002,,,,,2.0175499E-3,-56.799999237,
,,,2.0175599E-3,10.4000006,,,,,2.0175599E-3,-56.000000000,
,,,2.0175700E-3,10.4000006,,,,,2.0175700E-3,-56.799999237,
,,,2.0175800E-3,10.4000006,,,,,2.0175800E-3,-56.000000000,
,,,2.0175900E-3,10.8000002,,,,,2.0175900E-3,-56.000000000,
,,,2.0176000E-3,10.8000002,,,,,2.0176000E-3,-56.000000000,
,,,2.0176100E-3,10.4000006,,,,,2.0176100E-3,-56.000000000,
,,,2.0176200E-3,10.4000006,,,,,2.0176200E-3,-55.200000763,
,,,2.0176300E-3,10.4000006,,,,,2.0176300E-3,-56.000000000,
,,,2.0176400E-3,10.4000006,,,,,2.0176400E-3,-56.000000000,
,,,2.0176501E-3,10.8000002,,,,,2.0176501E-3,-54.40000153,
,,,2.0176601E-3,10.8000002,,,,,2.0176601E-3,-56.799999237,
,,,2.0176701E-3,10.8000002,,,,,2.0176701E-3,-56.000000000,
,,,2.0176801E-3,10.4000006,,,,,2.0176801E-3,-55.200000763,
,,,2.0176901E-3,10.8000002,,,,,2.0176901E-3,-54.40000153,
,,,2.0176999E-3,10.4000006,,,,,2.0176999E-3,-55.200000763,
,,,2.0177099E-3,10.4000006,,,,,2.0177099E-3,-55.200000763,
,,,2.0177199E-3,11.1999998,,,,,2.0177199E-3,-54.40000153,
,,,2.0177299E-3,10.8000002,,,,,2.0177299E-3,-55.200000763,
,,,2.0177399E-3,10.4000006,,,,,2.0177399E-3,-54.40000153,
,,,2.0177499E-3,10.8000002,,,,,2.0177499E-3,-54.40000153,
,,,2.0177600E-3,10.4000006,,,,,2.0177600E-3,-54.40000153,
,,,2.0177700E-3,10.0000000,,,,,2.0177700E-3,-53.60000229,
,,,2.0177800E-3,10.4000006,,,,,2.0177800E-3,-53.60000229,
,,,2.0177900E-3,10.8000002,,,,,2.0177900E-3,-54.40000153,
,,,2.0178000E-3,10.8000002,,,,,2.0178000E-3,-53.60000229,
,,,2.0178100E-3,10.8000002,,,,,2.0178100E-3,-54.40000153,
,,,2.0178200E-3,11.1999998,,,,,2.0178200E-3,-52.79999924,
,,,2.0178300E-3,10.8000002,,,,,2.0178300E-3,-53.60000229,
,,,2.0178400E-3,10.8000002,,,,,2.0178400E-3,-53.60000229,
,,,2.0178501E-3,10.8000002,,,,,2.0178501E-3,-52.00000000,
,,,2.0178601E-3,10.8000002,,,,,2.0178601E-3,-53.60000229,
,,,2.0178701E-3,11.1999998,,,,,2.0178701E-3,-52.79999924,
,,,2.0178801E-3,10.8000002,,,,,2.0178801E-3,-51.20000076,
,,,2.0178901E-3,11.1999998,,,,,2.0178901E-3,-52.00000000,
,,,2.0178999E-3,10.8000002,,,,,2.0178999E-3,-53.60000229,
,,,2.0179099E-3,10.8000002,,,,,2.0179099E-3,-51.20000076,
,,,2.0179199E-3,10.8000002,,,,,2.0179199E-3,-52.00000000,
,,,2.0179299E-3,11.1999998,,,,,2.0179299E-3,-51.20000076,
,,,2.0179399E-3,10.8000002,,,,,2.0179399E-3,-51.20000076,
,,,2.0179499E-3,10.8000002,,,,,2.0179499E-3,-51.20000076,
,,,2.0179600E-3,10.8000002,,,,,2.0179600E-3,-52.00000000,
,,,2.0179700E-3,10.8000002,,,,,2.0179700E-3,-52.00000000,
,,,2.0179800E-3,10.8000002,,,,,2.0179800E-3,-52.00000000,
,,,2.0179900E-3,10.8000002,,,,,2.0179900E-3,-51.20000076,
,,,2.0180000E-3,11.1999998,,,,,2.0180000E-3,-50.40000153,
,,,2.0180100E-3,11.1999998,,,,,2.0180100E-3,-50.40000153,
,,,2.0180200E-3,10.8000002,,,,,2.0180200E-3,-50.40000153,
,,,2.0180300E-3,10.8000002,,,,,2.0180300E-3,-50.40000153,
,,,2.0180400E-3,11.1999998,,,,,2.0180400E-3,-50.40000153,
,,,2.0180501E-3,10.8000002,,,,,2.0180501E-3,-49.60000229,
,,,2.0180601E-3,11.1999998,,,,,2.0180601E-3,-50.40000153,
,,,2.0180701E-3,11.1999998,,,,,2.0180701E-3,-50.40000153,
,,,2.0180801E-3,10.8000002,,,,,2.0180801E-3,-49.60000229,
,,,2.0180901E-3,10.8000002,,,,,2.0180901E-3,-49.60000229,
,,,2.0180999E-3,11.1999998,,,,,2.0180999E-3,-49.60000229,
,,,2.0181099E-3,11.1999998,,,,,2.0181099E-3,-48.79999924,
,,,2.0181199E-3,11.1999998,,,,,2.0181199E-3,-49.60000229,
,,,2.0181299E-3,11.1999998,,,,,2.0181299E-3,-48.79999924,
,,,2.0181399E-3,11.1999998,,,,,2.0181399E-3,-48.79999924,
,,,2.0181499E-3,10.8000002,,,,,2.0181499E-3,-49.60000229,
,,,2.0181600E-3,11.6000004,,,,,2.0181600E-3,-48.00000000,
,,,2.0181700E-3,11.1999998,,,,,2.0181700E-3,-49.60000229,
,,,2.0181800E-3,10.8000002,,,,,2.0181800E-3,-47.20000076,
,,,2.0181900E-3,11.1999998,,,,,2.0181900E-3,-48.00000000,
,,,2.0182000E-3,11.1999998,,,,,2.0182000E-3,-48.00000000,
,,,2.0182100E-3,10.8000002,,,,,2.0182100E-3,-48.00000000,
,,,2.0182200E-3,11.1999998,,,,,2.0182200E-3,-48.00000000,
,,,2.0182300E-3,10.8000002,,,,,2.0182300E-3,-48.00000000,
,,,2.0182400E-3,11.6000004,,,,,2.0182400E-3,-47.20000076,
,,,2.0182501E-3,11.1999998,,,,,2.0182501E-3,-47.20000076,
,,,2.0182601E-3,11.6000004,,,,,2.0182601E-3,-46.40000153,
,,,2.0182701E-3,11.1999998,,,,,2.0182701E-3,-48.00000000,
,,,2.0182801E-3,11.1999998,,,,,2.0182801E-3,-46.40000153,
,,,2.0182901E-3,11.1999998,,,,,2.0182901E-3,-47.20000076,
,,,2.0182999E-3,11.1999998,,,,,2.0182999E-3,-47.20000076,
,,,2.0183099E-3,10.8000002,,,,,2.0183099E-3,-46.40000153,
,,,2.0183199E-3,10.8000002,,,,,2.0183199E-3,-45.60000229,
,,,2.0183299E-3,11.1999998,,,,,2.0183299E-3,-45.60000229,
,,,2.0183399E-3,11.6000004,,,,,2.0183399E-3,-46.40000153,
,,,2.0183499E-3,11.6000004,,,,,2.0183499E-3,-46.40000153,
,,,2.0183600E-3,11.6000004,,,,,2.0183600E-3,-46.40000153,
,,,2.0183700E-3,11.6000004,,,,,2.0183700E-3,-46.40000153,
,,,2.0183800E-3,11.1999998,,,,,2.0183800E-3,-46.40000153,
,,,2.0183900E-3,11.6000004,,,,,2.0183900E-3,-45.60000229,
,,,2.0184000E-3,10.8000002,,,,,2.0184000E-3,-45.60000229,
,,,2.0184100E-3,11.6000004,,,,,2.0184100E-3,-45.60000229,
,,,2.0184200E-3,11.1999998,,,,,2.0184200E-3,-44.79999924,
,,,2.0184300E-3,11.6000004,,,,,2.0184300E-3,-45.60000229,
,,,2.0184400E-3,11.6000004,,,,,2.0184400E-3,-44.79999924,
,,,2.0184501E-3,11.1999998,,,,,2.0184501E-3,-44.79999924,
,,,2.0184601E-3,11.1999998,,,,,2.0184601E-3,-44.00000000,
,,,2.0184701E-3,11.6000004,,,,,2.0184701E-3,-44.79999924,
,,,2.0184801E-3,11.1999998,,,,,2.0184801E-3,-43.20000076,
,,,2.0184901E-3,11.6000004,,,,,2.0184901E-3,-43.20000076,
,,,2.0184999E-3,11.1999998,,,,,2.0184999E-3,-44.00000000,
,,,2.0185099E-3,11.1999998,,,,,2.0185099E-3,-44.79999924,
,,,2.0185199E-3,10.8000002,,,,,2.0185199E-3,-44.79999924,
,,,2.0185299E-3,11.6000004,,,,,2.0185299E-3,-43.20000076,
,,,2.0185399E-3,11.6000004,,,,,2.0185399E-3,-43.20000076,
,,,2.0185499E-3,11.6000004,,,,,2.0185499E-3,-44.00000000,
,,,2.0185600E-3,11.1999998,,,,,2.0185600E-3,-44.00000000,
,,,2.0185700E-3,11.6000004,,,,,2.0185700E-3,-42.40000153,
,,,2.0185800E-3,11.6000004,,,,,2.0185800E-3,-42.40000153,
,,,2.0185900E-3,11.6000004,,,,,2.0185900E-3,-43.20000076,
,,,2.0186000E-3,11.6000004,,,,,2.0186000E-3,-43.20000076,
,,,2.0186100E-3,11.1999998,,,,,2.0186100E-3,-41.60000229,
,,,2.0186200E-3,11.6000004,,,,,2.0186200E-3,-43.20000076,
,,,2.0186300E-3,11.6000004,,,,,2.0186300E-3,-41.60000229,
,,,2.0186401E-3,11.6000004,,,,,2.0186401E-3,-41.60000229,
,,,2.0186501E-3,11.6000004,,,,,2.0186501E-3,-43.20000076,
,,,2.0186601E-3,11.1999998,,,,,2.0186601E-3,-42.40000153,
,,,2.0186701E-3,11.6000004,,,,,2.0186701E-3,-41.60000229,
,,,2.0186801E-3,12.0000000,,,,,2.0186801E-3,-41.60000229,
,,,2.0186901E-3,11.6000004,,,,,2.0186901E-3,-40.79999924,
,,,2.0186999E-3,11.1999998,,,,,2.0186999E-3,-42.40000153,
,,,2.0187099E-3,11.1999998,,,,,2.0187099E-3,-40.00000000,
,,,2.0187199E-3,11.6000004,,,,,2.0187199E-3,-40.79999924,
,,,2.0187299E-3,11.6000004,,,,,2.0187299E-3,-40.79999924,
,,,2.0187399E-3,11.1999998,,,,,2.0187399E-3,-40.79999924,
,,,2.0187499E-3,11.1999998,,,,,2.0187499E-3,-40.79999924,
,,,2.0187600E-3,11.6000004,,,,,2.0187600E-3,-40.79999924,
,,,2.0187700E-3,11.1999998,,,,,2.0187700E-3,-40.00000000,
,,,2.0187800E-3,11.1999998,,,,,2.0187800E-3,-40.79999924,
,,,2.0187900E-3,11.1999998,,,,,2.0187900E-3,-40.79999924,
,,,2.0188000E-3,11.1999998,,,,,2.0188000E-3,-39.20000076,
,,,2.0188100E-3,11.6000004,,,,,2.0188100E-3,-39.20000076,
,,,2.0188200E-3,12.4000006,,,,,2.0188200E-3,-39.20000076,
,,,2.0188300E-3,12.0000000,,,,,2.0188300E-3,-38.40000153,
,,,2.0188401E-3,11.6000004,,,,,2.0188401E-3,-38.40000153,
,,,2.0188501E-3,11.6000004,,,,,2.0188501E-3,-38.40000153,
,,,2.0188601E-3,11.6000004,,,,,2.0188601E-3,-38.40000153,
,,,2.0188701E-3,11.6000004,,,,,2.0188701E-3,-38.40000153,
,,,2.0188801E-3,11.6000004,,,,,2.0188801E-3,-38.40000153,
,,,2.0188899E-3,11.6000004,,,,,2.0188899E-3,-38.40000153,
,,,2.0188999E-3,11.6000004,,,,,2.0188999E-3,-38.40000153,
,,,2.0189099E-3,11.6000004,,,,,2.0189099E-3,-37.60000229,
,,,2.0189199E-3,11.6000004,,,,,2.0189199E-3,-38.40000153,
,,,2.0189299E-3,11.6000004,,,,,2.0189299E-3,-38.40000153,
,,,2.0189399E-3,12.0000000,,,,,2.0189399E-3,-38.40000153,
,,,2.0189499E-3,11.6000004,,,,,2.0189499E-3,-36.79999924,
,,,2.0189600E-3,10.8000002,,,,,2.0189600E-3,-37.60000229,
,,,2.0189700E-3,12.0000000,,,,,2.0189700E-3,-36.00000000,
,,,2.0189800E-3,11.1999998,,,,,2.0189800E-3,-37.60000229,
,,,2.0189900E-3,12.0000000,,,,,2.0189900E-3,-36.00000000,
,,,2.0190000E-3,11.6000004,,,,,2.0190000E-3,-36.00000000,
,,,2.0190100E-3,11.6000004,,,,,2.0190100E-3,-36.79999924,
,,,2.0190200E-3,11.6000004,,,,,2.0190200E-3,-36.00000000,
,,,2.0190300E-3,12.0000000,,,,,2.0190300E-3,-36.79999924,
,,,2.0190401E-3,12.0000000,,,,,2.0190401E-3,-36.00000000,
,,,2.0190501E-3,12.0000000,,,,,2.0190501E-3,-36.00000000,
,,,2.0190601E-3,11.6000004,,,,,2.0190601E-3,-36.79999924,
,,,2.0190701E-3,12.0000000,,,,,2.0190701E-3,-34.40000153,
,,,2.0190801E-3,11.6000004,,,,,2.0190801E-3,-35.20000076,
,,,2.0190899E-3,11.1999998,,,,,2.0190899E-3,-36.00000000,
,,,2.0190999E-3,12.0000000,,,,,2.0190999E-3,-34.40000153,
,,,2.0191099E-3,11.6000004,,,,,2.0191099E-3,-35.20000076,
,,,2.0191199E-3,11.6000004,,,,,2.0191199E-3,-34.40000153,
,,,2.0191299E-3,11.6000004,,,,,2.0191299E-3,-34.40000153,
,,,2.0191399E-3,11.1999998,,,,,2.0191399E-3,-34.40000153,
,,,2.0191499E-3,11.6000004,,,,,2.0191499E-3,-34.40000153,
,,,2.0191600E-3,11.6000004,,,,,2.0191600E-3,-34.40000153,
,,,2.0191700E-3,11.6000004,,,,,2.0191700E-3,-33.60000229,
,,,2.0191800E-3,11.1999998,,,,,2.0191800E-3,-32.79999924,
,,,2.0191900E-3,12.0000000,,,,,2.0191900E-3,-33.60000229,
,,,2.0192000E-3,11.6000004,,,,,2.0192000E-3,-33.60000229,
,,,2.0192100E-3,12.0000000,,,,,2.0192100E-3,-33.60000229,
,,,2.0192200E-3,11.6000004,,,,,2.0192200E-3,-32.79999924,
,,,2.0192300E-3,11.6000004,,,,,2.0192300E-3,-32.00000000,
,,,2.0192401E-3,12.0000000,,,,,2.0192401E-3,-32.79999924,
,,,2.0192501E-3,12.0000000,,,,,2.0192501E-3,-32.00000000,
,,,2.0192601E-3,12.0000000,,,,,2.0192601E-3,-32.00000000,
,,,2.0192701E-3,12.0000000,,,,,2.0192701E-3,-31.20000076,
,,,2.0192801E-3,12.0000000,,,,,2.0192801E-3,-31.20000076,
,,,2.0192899E-3,12.0000000,,,,,2.0192899E-3,-32.00000000,
,,,2.0192999E-3,12.0000000,,,,,2.0192999E-3,-31.20000076,
,,,2.0193099E-3,11.6000004,,,,,2.0193099E-3,-32.00000000,
,,,2.0193199E-3,12.0000000,,,,,2.0193199E-3,-30.39999962,
,,,2.0193299E-3,11.1999998,,,,,2.0193299E-3,-31.20000076,
,,,2.0193399E-3,11.6000004,,,,,2.0193399E-3,-30.39999962,
,,,2.0193500E-3,12.0000000,,,,,2.0193500E-3,-30.39999962,
,,,2.0193600E-3,11.6000004,,,,,2.0193600E-3,-31.20000076,
,,,2.0193700E-3,11.1999998,,,,,2.0193700E-3,-30.39999962,
,,,2.0193800E-3,12.0000000,,,,,2.0193800E-3,-29.60000038,
,,,2.0193900E-3,11.6000004,,,,,2.0193900E-3,-30.39999962,
,,,2.0194000E-3,12.0000000,,,,,2.0194000E-3,-30.39999962,
,,,2.0194100E-3,11.6000004,,,,,2.0194100E-3,-30.39999962,
,,,2.0194200E-3,12.0000000,,,,,2.0194200E-3,-29.60000038,
,,,2.0194300E-3,11.6000004,,,,,2.0194300E-3,-29.60000038,
,,,2.0194401E-3,11.1999998,,,,,2.0194401E-3,-29.60000038,
,,,2.0194501E-3,12.0000000,,,,,2.0194501E-3,-28.80000114,
,,,2.0194601E-3,11.6000004,,,,,2.0194601E-3,-29.60000038,
,,,2.0194701E-3,11.6000004,,,,,2.0194701E-3,-28.80000114,
,,,2.0194801E-3,11.6000004,,,,,2.0194801E-3,-28.80000114,
,,,2.0194899E-3,11.6000004,,,,,2.0194899E-3,-28.80000114,
,,,2.0194999E-3,12.4000006,,,,,2.0194999E-3,-28.80000114,
,,,2.0195099E-3,11.1999998,,,,,2.0195099E-3,-28.80000114,
,,,2.0195199E-3,11.6000004,,,,,2.0195199E-3,-28.00000000,
,,,2.0195299E-3,12.0000000,,,,,2.0195299E-3,-28.00000000,
,,,2.0195399E-3,12.0000000,,,,,2.0195399E-3,-28.80000114,
,,,2.0195500E-3,12.0000000,,,,,2.0195500E-3,-28.00000000,
,,,2.0195600E-3,11.6000004,,,,,2.0195600E-3,-27.20000076,
,,,2.0195700E-3,12.0000000,,,,,2.0195700E-3,-27.20000076,
,,,2.0195800E-3,11.6000004,,,,,2.0195800E-3,-27.20000076,
,,,2.0195900E-3,11.1999998,,,,,2.0195900E-3,-27.20000076,
,,,2.0196000E-3,11.1999998,,,,,2.0196000E-3,-25.60000038,
,,,2.0196100E-3,12.0000000,,,,,2.0196100E-3,-27.20000076,
,,,2.0196200E-3,12.0000000,,,,,2.0196200E-3,-26.39999962,
,,,2.0196300E-3,11.6000004,,,,,2.0196300E-3,-27.20000076,
,,,2.0196401E-3,12.0000000,,,,,2.0196401E-3,-27.20000076,
,,,2.0196501E-3,11.6000004,,,,,2.0196501E-3,-26.39999962,
,,,2.0196601E-3,11.6000004,,,,,2.0196601E-3,-25.60000038,
,,,2.0196701E-3,12.0000000,,,,,2.0196701E-3,-25.60000038,
,,,2.0196801E-3,11.1999998,,,,,2.0196801E-3,-26.39999962,
,,,2.0196899E-3,11.1999998,,,,,2.0196899E-3,-24.80000114,
,,,2.0196999E-3,12.0000000,,,,,2.0196999E-3,-25.60000038,
,,,2.0197099E-3,11.6000004,,,,,2.0197099E-3,-24.80000114,
,,,2.0197199E-3,11.6000004,,,,,2.0197199E-3,-24.80000114,
,,,2.0197299E-3,12.0000000,,,,,2.0197299E-3,-24.80000114,
,,,2.0197399E-3,11.6000004,,,,,2.0197399E-3,-25.60000038,
,,,2.0197500E-3,11.6000004,,,,,2.0197500E-3,-24.00000000,
,,,2.0197600E-3,11.6000004,,,,,2.0197600E-3,-24.80000114,
,,,2.0197700E-3,11.6000004,,,,,2.0197700E-3,-23.20000076,
,,,2.0197800E-3,11.6000004,,,,,2.0197800E-3,-24.00000000,
,,,2.0197900E-3,11.6000004,,,,,2.0197900E-3,-24.00000000,
,,,2.0198000E-3,11.6000004,,,,,2.0198000E-3,-23.20000076,
,,,2.0198100E-3,12.0000000,,,,,2.0198100E-3,-23.20000076,
,,,2.0198200E-3,11.6000004,,,,,2.0198200E-3,-23.20000076,
,,,2.0198300E-3,12.0000000,,,,,2.0198300E-3,-23.20000076,
,,,2.0198401E-3,11.6000004,,,,,2.0198401E-3,-22.39999962,
,,,2.0198501E-3,11.6000004,,,,,2.0198501E-3,-22.39999962,
,,,2.0198601E-3,11.6000004,,,,,2.0198601E-3,-22.39999962,
,,,2.0198701E-3,11.6000004,,,,,2.0198701E-3,-20.80000114,
,,,2.0198801E-3,12.0000000,,,,,2.0198801E-3,-21.60000038,
,,,2.0198899E-3,12.0000000,,,,,2.0198899E-3,-22.39999962,
,,,2.0198999E-3,12.0000000,,,,,2.0198999E-3,-22.39999962,
,,,2.0199099E-3,12.0000000,,,,,2.0199099E-3,-21.60000038,
,,,2.0199199E-3,12.0000000,,,,,2.0199199E-3,-21.60000038,
,,,2.0199299E-3,12.0000000,,,,,2.0199299E-3,-20.80000114,
,,,2.0199399E-3,11.6000004,,,,,2.0199399E-3,-20.80000114,
,,,2.0199500E-3,11.1999998,,,,,2.0199500E-3,-21.60000038,
,,,2.0199600E-3,12.0000000,,,,,2.0199600E-3,-20.80000114,
,,,2.0199700E-3,11.6000004,,,,,2.0199700E-3,-20.80000114,
,,,2.0199800E-3,12.0000000,,,,,2.0199800E-3,-20.0000000,
,,,2.0199900E-3,11.6000004,,,,,2.0199900E-3,-20.0000000,
,,,2.0200000E-3,11.6000004,,,,,2.0200000E-3,-20.80000114,
,,,2.0200100E-3,12.4000006,,,,,2.0200100E-3,-20.0000000,
,,,2.0200200E-3,11.6000004,,,,,2.0200200E-3,-20.0000000,
,,,2.0200300E-3,12.0000000,,,,,2.0200300E-3,-19.2000008,
,,,2.0200401E-3,12.0000000,,,,,2.0200401E-3,-19.2000008,
,,,2.0200501E-3,12.0000000,,,,,2.0200501E-3,-19.2000008,
,,,2.0200601E-3,11.6000004,,,,,2.0200601E-3,-19.2000008,
,,,2.0200701E-3,12.0000000,,,,,2.0200701E-3,-19.2000008,
,,,2.0200801E-3,11.6000004,,,,,2.0200801E-3,-19.2000008,
,,,2.0200899E-3,12.0000000,,,,,2.0200899E-3,-19.2000008,
,,,2.0200999E-3,11.1999998,,,,,2.0200999E-3,-19.2000008,
,,,2.0201099E-3,11.6000004,,,,,2.0201099E-3,-19.2000008,
,,,2.0201199E-3,12.4000006,,,,,2.0201199E-3,-17.6000004,
,,,2.0201299E-3,11.6000004,,,,,2.0201299E-3,-17.6000004,
,,,2.0201399E-3,12.0000000,,,,,2.0201399E-3,-17.6000004,
,,,2.0201500E-3,11.1999998,,,,,2.0201500E-3,-16.8000011,
,,,2.0201600E-3,11.6000004,,,,,2.0201600E-3,-16.8000011,
,,,2.0201700E-3,11.6000004,,,,,2.0201700E-3,-16.8000011,
,,,2.0201800E-3,12.0000000,,,,,2.0201800E-3,-16.8000011,
,,,2.0201900E-3,12.0000000,,,,,2.0201900E-3,-16.8000011,
,,,2.0202000E-3,12.0000000,,,,,2.0202000E-3,-16.8000011,
,,,2.0202100E-3,12.0000000,,,,,2.0202100E-3,-16.8000011,
,,,2.0202200E-3,12.4000006,,,,,2.0202200E-3,-16.0000000,
,,,2.0202301E-3,12.0000000,,,,,2.0202301E-3,-16.0000000,
,,,2.0202401E-3,11.6000004,,,,,2.0202401E-3,-16.0000000,
,,,2.0202501E-3,11.6000004,,,,,2.0202501E-3,-16.8000011,
,,,2.0202601E-3,12.0000000,,,,,2.0202601E-3,-15.1999998,
,,,2.0202701E-3,11.6000004,,,,,2.0202701E-3,-15.1999998,
,,,2.0202799E-3,11.6000004,,,,,2.0202799E-3,-15.1999998,
,,,2.0202899E-3,12.0000000,,,,,2.0202899E-3,-14.4000006,
,,,2.0202999E-3,11.6000004,,,,,2.0202999E-3,-16.0000000,
,,,2.0203099E-3,12.0000000,,,,,2.0203099E-3,-14.4000006,
,,,2.0203199E-3,11.6000004,,,,,2.0203199E-3,-14.4000006,
,,,2.0203299E-3,11.6000004,,,,,2.0203299E-3,-14.4000006,
,,,2.0203399E-3,12.4000006,,,,,2.0203399E-3,-13.6000004,
,,,2.0203500E-3,12.0000000,,,,,2.0203500E-3,-13.6000004,
,,,2.0203600E-3,11.6000004,,,,,2.0203600E-3,-13.6000004,
,,,2.0203700E-3,11.6000004,,,,,2.0203700E-3,-13.6000004,
,,,2.0203800E-3,12.0000000,,,,,2.0203800E-3,-12.8000002,
,,,2.0203900E-3,12.0000000,,,,,2.0203900E-3,-12.8000002,
,,,2.0204000E-3,11.6000004,,,,,2.0204000E-3,-13.6000004,
,,,2.0204100E-3,12.0000000,,,,,2.0204100E-3,-12.0000000,
,,,2.0204200E-3,12.0000000,,,,,2.0204200E-3,-12.0000000,
,,,2.0204301E-3,12.0000000,,,,,2.0204301E-3,-12.8000002,
,,,2.0204401E-3,11.6000004,,,,,2.0204401E-3,-12.8000002,
,,,2.0204501E-3,11.6000004,,,,,2.0204501E-3,-12.8000002,
,,,2.0204601E-3,11.1999998,,,,,2.0204601E-3,-12.0000000,
,,,2.0204701E-3,11.6000004,,,,,2.0204701E-3,-12.0000000,
,,,2.0204799E-3,12.0000000,,,,,2.0204799E-3,-12.0000000,
,,,2.0204899E-3,11.6000004,,,,,2.0204899E-3,-12.0000000,
,,,2.0204999E-3,11.1999998,,,,,2.0204999E-3,-11.1999998,
,,,2.0205099E-3,12.0000000,,,,,2.0205099E-3,-11.1999998,
,,,2.0205199E-3,12.0000000,,,,,2.0205199E-3,-10.4000006,
,,,2.0205299E-3,12.0000000,,,,,2.0205299E-3,-10.4000006,
,,,2.0205399E-3,12.0000000,,,,,2.0205399E-3,-10.4000006,
