week 3/csv_files/Q2/33.5 k Hz.csv

Record Length,2500,Points,2.0166000E-3,4.00000000,,Record Length,2500,Points,2.0166000E-3,84.000000000,
Sample Interval,19.9999999E-9,s,2.0166200E-3,4.40000010,,Sample Interval,19.9999999E-9,s,2.0166200E-3,84.000000000,
Trigger Point,-100.8300048E3,Samples,2.0166400E-3,4.40000010,,Trigger Point,-100.8300048E3,Samples,2.0166400E-3,83.200004578,
,,,2.0166601E-3,4.40000010,,,,,2.0166601E-3,83.200004578,
,,,2.0166801E-3,4.00000000,,,,,2.0166801E-3,83.200004578,
,,,2.0166999E-3,4.00000000,,,,,2.0166999E-3,84.000000000,
Source,CH1,,2.0167199E-3,4.00000000,,Source,CH2,,2.0167199E-3,83.200004578,
Vertical Units,Volts,,2.0167399E-3,4.00000000,,Vertical Units,Volts,,2.0167399E-3,83.200004578,
Vertical Scale,10.0000001,,2.0167599E-3,4.00000000,,Vertical Scale,20.0000003,,2.0167599E-3,82.400001526,
Vertical Offset,0,,2.0167800E-3,4.40000010,,Vertical Offset,0,,2.0167800E-3,83.200004578,
Horizontal Units,s,,2.0168000E-3,4.00000000,,Horizontal Units,s,,2.0168000E-3,83.200004578,
Horizontal Scale,4.99999997E-6,,2.0168200E-3,4.00000000,,Horizontal Scale,4.99999997E-6,,2.0168200E-3,82.400001526,
Pt Fmt,Y,,2.0168400E-3,4.00000000,,Pt Fmt,Y,,2.0168400E-3,83.200004578,
Yzero,-1.0400000,,2.0168601E-3,4.00000000,,Yzero,-960.000000000E-3,,2.0168601E-3,81.599998474,
Probe Atten,10.0000000,,2.0168801E-3,4.00000000,,Probe Atten,10.0000000,,2.0168801E-3,82.400001526,
,,,2.0168999E-3,3.60000014,,,,,2.0168999E-3,81.599998474,
Note,TDS 2012C - 10:52:59   29/05/2022,,2.0169199E-3,4.40000010,,Note,TDS 2012C - 10:52:59   29/05/2022,,2.0169199E-3,80.800003052,
,,,2.0169399E-3,4.00000000,,,,,2.0169399E-3,81.599998474,
,,,2.0169599E-3,4.00000000,,,,,2.0169599E-3,80.000000000,
,,,2.0169800E-3,4.40000010,,,,,2.0169800E-3,80.800003052,
,,,2.0170000E-3,3.60000014,,,,,2.0170000E-3,80.800003052,
,,,2.0170200E-3,4.00000000,,,,,2.0170200E-3,80.000000000,
,,,2.0170400E-3,4.00000000,,,,,2.0170400E-3,80.800003052,
,,,2.0170601E-3,4.00000000,,,,,2.0170601E-3,79.200004578,
,,,2.0170801E-3,3.60000014,,,,,2.0170801E-3,80.000000000,
,,,2.0170999E-3,4.00000000,,,,,2.0170999E-3,79.200004578,
,,,2.0171199E-3,4.00000000,,,,,2.0171199E-3,80.000000000,
,,,2.0171399E-3,3.60000014,,,,,2.0171399E-3,80.000000000,
,,,2.0171599E-3,4.00000000,,,,,2.0171599E-3,79.200004578,
,,,2.0171800E-3,3.60000014,,,,,2.0171800E-3,80.000000000,
,,,2.0172000E-3,3.60000014,,,,,2.0172000E-3,78.400001526,
,,,2.0172200E-3,3.60000014,,,,,2.0172200E-3,80.000000000,
,,,2.0172400E-3,3.20000005,,,,,2.0172400E-3,79.200004578,
,,,2.0172601E-3,3.60000014,,,,,2.0172601E-3,78.400001526,
,,,2.0172801E-3,4.00000000,,,,,2.0172801E-3,77.599998474,
,,,2.0172999E-3,4.00000000,,,,,2.0172999E-3,78.400001526,
,,,2.0173199E-3,3.60000014,,,,,2.0173199E-3,77.599998474,
,,,2.0173399E-3,3.60000014,,,,,2.0173399E-3,78.400001526,
,,,2.0173599E-3,3.60000014,,,,,2.0173599E-3,76.800003052,
,,,2.0173800E-3,4.00000000,,,,,2.0173800E-3,76.800003052,
,,,2.0174000E-3,4.00000000,,,,,2.0174000E-3,76.800003052,
,,,2.0174200E-3,3.60000014,,,,,2.0174200E-3,76.800003052,
,,,2.0174400E-3,3.60000014,,,,,2.0174400E-3,76.800003052,
,,,2.0174601E-3,3.60000014,,,,,2.0174601E-3,76.800003052,
,,,2.0174801E-3,3.20000005,,,,,2.0174801E-3,76.000000000,
,,,2.0174999E-3,3.60000014,,,,,2.0174999E-3,76.000000000,
,,,2.0175199E-3,3.20000005,,,,,2.0175199E-3,75.200004578,
,,,2.0175399E-3,3.20000005,,,,,2.0175399E-3,75.200004578,
,,,2.0175599E-3,3.60000014,,,,,2.0175599E-3,75.200004578,
,,,2.0175800E-3,4.00000000,,,,,2.0175800E-3,75.200004578,
,,,2.0176000E-3,3.60000014,,,,,2.0176000E-3,74.400001526,
,,,2.0176200E-3,3.60000014,,,,,2.0176200E-3,76.000000000,
,,,2.0176400E-3,3.60000014,,,,,2.0176400E-3,74.400001526,
,,,2.0176601E-3,3.60000014,,,,,2.0176601E-3,74.400001526,
,,,2.0176801E-3,3.60000014,,,,,2.0176801E-3,73.599998474,
,,,2.0176999E-3,3.20000005,,,,,2.0176999E-3,73.599998474,
,,,2.0177199E-3,3.20000005,,,,,2.0177199E-3,73.599998474,
,,,2.0177399E-3,3.60000014,,,,,2.0177399E-3,73.599998474,
,,,2.0177600E-3,3.20000005,,,,,2.0177600E-3,72.800003052,
,,,2.0177800E-3,3.60000014,,,,,2.0177800E-3,72.000000000,
,,,2.0178000E-3,3.20000005,,,,,2.0178000E-3,72.800003052,
,,,2.0178200E-3,3.20000005,,,,,2.0178200E-3,72.800003052,
,,,2.0178400E-3,3.20000005,,,,,2.0178400E-3,72.800003052,
,,,2.0178601E-3,2.79999995,,,,,2.0178601E-3,72.800003052,
,,,2.0178801E-3,3.20000005,,,,,2.0178801E-3,71.200004578,
,,,2.0178999E-3,2.79999995,,,,,2.0178999E-3,71.200004578,
,,,2.0179199E-3,3.60000014,,,,,2.0179199E-3,70.400001526,
,,,2.0179399E-3,3.20000005,,,,,2.0179399E-3,71.200004578,
,,,2.0179600E-3,3.60000014,,,,,2.0179600E-3,70.400001526,
,,,2.0179800E-3,3.20000005,,,,,2.0179800E-3,70.400001526,
,,,2.0180000E-3,3.60000014,,,,,2.0180000E-3,70.400001526,
,,,2.0180200E-3,3.20000005,,,,,2.0180200E-3,69.599998474,
,,,2.0180400E-3,3.20000005,,,,,2.0180400E-3,68.800003052,
,,,2.0180601E-3,3.60000014,,,,,2.0180601E-3,69.599998474,
,,,2.0180801E-3,2.79999995,,,,,2.0180801E-3,68.800003052,
,,,2.0180999E-3,3.20000005,,,,,2.0180999E-3,68.800003052,
,,,2.0181199E-3,3.20000005,,,,,2.0181199E-3,68.800003052,
,,,2.0181399E-3,2.79999995,,,,,2.0181399E-3,68.000000000,
,,,2.0181600E-3,2.79999995,,,,,2.0181600E-3,68.800003052,
,,,2.0181800E-3,2.79999995,,,,,2.0181800E-3,68.000000000,
,,,2.0182000E-3,3.20000005,,,,,2.0182000E-3,67.200004578,
,,,2.0182200E-3,4.00000000,,,,,2.0182200E-3,67.200004578,
,,,2.0182400E-3,3.20000005,,,,,2.0182400E-3,67.200004578,
,,,2.0182601E-3,2.79999995,,,,,2.0182601E-3,66.400001526,
,,,2.0182801E-3,3.20000005,,,,,2.0182801E-3,66.400001526,
,,,2.0182999E-3,3.20000005,,,,,2.0182999E-3,66.400001526,
,,,2.0183199E-3,3.60000014,,,,,2.0183199E-3,65.599998474,
,,,2.0183399E-3,2.79999995,,,,,2.0183399E-3,66.400001526,
,,,2.0183600E-3,2.79999995,,,,,2.0183600E-3,66.400001526,
,,,2.0183800E-3,2.79999995,,,,,2.0183800E-3,65.599998474,
,,,2.0184000E-3,3.20000005,,,,,2.0184000E-3,65.599998474,
,,,2.0184200E-3,2.79999995,,,,,2.0184200E-3,64.800003052,
,,,2.0184400E-3,2.79999995,,,,,2.0184400E-3,64.800003052,
,,,2.0184601E-3,3.20000005,,,,,2.0184601E-3,64.800003052,
,,,2.0184801E-3,2.79999995,,,,,2.0184801E-3,64.800003052,
,,,2.0184999E-3,3.20000005,,,,,2.0184999E-3,64.800003052,
,,,2.0185199E-3,2.79999995,,,,,2.0185199E-3,63.200000763,
,,,2.0185399E-3,2.79999995,,,,,2.0185399E-3,62.400001526,
,,,2.0185600E-3,3.20000005,,,,,2.0185600E-3,63.200000763,
,,,2.0185800E-3,3.20000005,,,,,2.0185800E-3,63.200000763,
,,,2.0186000E-3,3.20000005,,,,,2.0186000E-3,61.600002289,
,,,2.0186200E-3,2.79999995,,,,,2.0186200E-3,62.400001526,
,,,2.0186401E-3,3.20000005,,,,,2.0186401E-3,61.600002289,
,,,2.0186601E-3,2.79999995,,,,,2.0186601E-3,61.600002289,
,,,2.0186801E-3,2.4000001,,,,,2.0186801E-3,61.600002289,
,,,2.0186999E-3,2.4000001,,,,,2.0186999E-3,60.000000000,
,,,2.0187199E-3,2.79999995,,,,,2.0187199E-3,60.000000000,
,,,2.0187399E-3,2.79999995,,,,,2.0187399E-3,60.799999237,
,,,2.0187600E-3,2.79999995,,,,,2.0187600E-3,60.000000000,
,,,2.0187800E-3,2.79999995,,,,,2.0187800E-3,60.000000000,
,,,2.0188000E-3,3.20000005,,,,,2.0188000E-3,60.000000000,
,,,2.0188200E-3,3.20000005,,,,,2.0188200E-3,60.000000000,
,,,2.0188401E-3,2.79999995,,,,,2.0188401E-3,59.200000763,
,,,2.0188601E-3,2.79999995,,,,,2.0188601E-3,58.400001526,
,,,2.0188801E-3,2.4000001,,,,,2.0188801E-3,59.200000763,
,,,2.0188999E-3,2.79999995,,,,,2.0188999E-3,58.400001526,
,,,2.0189199E-3,2.79999995,,,,,2.0189199E-3,57.600002289,
,,,2.0189399E-3,2.79999995,,,,,2.0189399E-3,56.000000000,
,,,2.0189600E-3,2.79999995,,,,,2.0189600E-3,56.799999237,
,,,2.0189800E-3,2.4000001,,,,,2.0189800E-3,56.799999237,
,,,2.0190000E-3,2.4000001,,,,,2.0190000E-3,56.799999237,
,,,2.0190200E-3,2.79999995,,,,,2.0190200E-3,56.799999237,
,,,2.0190401E-3,2.79999995,,,,,2.0190401E-3,56.799999237,
,,,2.0190601E-3,2.79999995,,,,,2.0190601E-3,56.000000000,
,,,2.0190801E-3,2.79999995,,,,,2.0190801E-3,55.200000763,
,,,2.0190999E-3,2.79999995,,,,,2.0190999E-3,55.200000763,
,,,2.0191199E-3,2.4000001,,,,,2.0191199E-3,55.200000763,
,,,2.0191399E-3,3.20000005,,,,,2.0191399E-3,54.40000153,
,,,2.0191600E-3,2.79999995,,,,,2.0191600E-3,55.200000763,
,,,2.0191800E-3,2.79999995,,,,,2.0191800E-3,54.40000153,
,,,2.0192000E-3,2.4000001,,,,,2.0192000E-3,54.40000153,
,,,2.0192200E-3,2.4000001,,,,,2.0192200E-3,54.40000153,
,,,2.0192401E-3,2.4000001,,,,,2.0192401E-3,52.79999924,
,,,2.0192601E-3,2.4000001,,,,,2.0192601E-3,53.60000229,
,,,2.0192801E-3,2.79999995,,,,,2.0192801E-3,52.00000000,
,,,2.0192999E-3,2.79999995,,,,,2.0192999E-3,52.79999924,
,,,2.0193199E-3,2.79999995,,,,,2.0193199E-3,52.79999924,
,,,2.0193399E-3,2.79999995,,,,,2.0193399E-3,52.00000000,
,,,2.0193600E-3,2.4000001,,,,,2.0193600E-3,51.20000076,
,,,2.0193800E-3,2.4000001,,,,,2.0193800E-3,50.40000153,
,,,2.0194000E-3,2.4000001,,,,,2.0194000E-3,51.20000076,
,,,2.0194200E-3,2.79999995,,,,,2.0194200E-3,50.40000153,
,,,2.0194401E-3,2.4000001,,,,,2.0194401E-3,49.60000229,
,,,2.0194601E-3,2.0000000,,,,,2.0194601E-3,50.40000153,
,,,2.0194801E-3,2.4000001,,,,,2.0194801E-3,50.40000153,
,,,2.0194999E-3,2.4000001,,,,,2.0194999E-3,48.79999924,
,,,2.0195199E-3,2.4000001,,,,,2.0195199E-3,48.00000000,
,,,2.0195399E-3,2.4000001,,,,,2.0195399E-3,48.79999924,
,,,2.0195600E-3,2.79999995,,,,,2.0195600E-3,47.20000076,
,,,2.0195800E-3,2.4000001,,,,,2.0195800E-3,48.00000000,
,,,2.0196000E-3,2.79999995,,,,,2.0196000E-3,47.20000076,
,,,2.0196200E-3,2.79999995,,,,,2.0196200E-3,48.00000000,
,,,2.0196401E-3,2.79999995,,,,,2.0196401E-3,47.20000076,
,,,2.0196601E-3,2.79999995,,,,,2.0196601E-3,47.20000076,
,,,2.0196799E-3,2.79999995,,,,,2.0196799E-3,46.40000153,
,,,2.0196999E-3,2.4000001,,,,,2.0196999E-3,45.60000229,
,,,2.0197199E-3,2.79999995,,,,,2.0197199E-3,45.60000229,
,,,2.0197399E-3,2.4000001,,,,,2.0197399E-3,45.60000229,
,,,2.0197600E-3,2.79999995,,,,,2.0197600E-3,45.60000229,
,,,2.0197800E-3,2.4000001,,,,,2.0197800E-3,45.60000229,
,,,2.0198000E-3,2.79999995,,,,,2.0198000E-3,45.60000229,
,,,2.0198200E-3,2.79999995,,,,,2.0198200E-3,44.00000000,
,,,2.0198401E-3,2.4000001,,,,,2.0198401E-3,44.00000000,
,,,2.0198601E-3,2.4000001,,,,,2.0198601E-3,44.00000000,
,,,2.0198799E-3,2.4000001,,,,,2.0198799E-3,42.40000153,
,,,2.0198999E-3,2.79999995,,,,,2.0198999E-3,43.20000076,
,,,2.0199199E-3,2.4000001,,,,,2.0199199E-3,42.40000153,
,,,2.0199399E-3,2.4000001,,,,,2.0199399E-3,41.60000229,
,,,2.0199600E-3,2.4000001,,,,,2.0199600E-3,42.40000153,
,,,2.0199800E-3,2.4000001,,,,,2.0199800E-3,40.79999924,
,,,2.0200000E-3,2.4000001,,,,,2.0200000E-3,41.60000229,
,,,2.0200200E-3,2.0000000,,,,,2.0200200E-3,40.00000000,
,,,2.0200401E-3,2.0000000,,,,,2.0200401E-3,40.79999924,
,,,2.0200601E-3,2.0000000,,,,,2.0200601E-3,40.00000000,
,,,2.0200799E-3,2.79999995,,,,,2.0200799E-3,40.00000000,
,,,2.0200999E-3,2.4000001,,,,,2.0200999E-3,40.00000000,
,,,2.0201199E-3,2.79999995,,,,,2.0201199E-3,39.20000076,
,,,2.0201399E-3,2.0000000,,,,,2.0201399E-3,39.20000076,
,,,2.0201600E-3,2.0000000,,,,,2.0201600E-3,38.40000153,
,,,2.0201800E-3,2.4000001,,,,,2.0201800E-3,37.60000229,
,,,2.0202000E-3,2.4000001,,,,,2.0202000E-3,38.40000153,
,,,2.0202200E-3,2.0000000,,,,,2.0202200E-3,37.60000229,
,,,2.0202401E-3,2.0000000,,,,,2.0202401E-3,36.79999924,
,,,2.0202601E-3,2.4000001,,,,,2.0202601E-3,36.79999924,
,,,2.0202799E-3,2.0000000,,,,,2.0202799E-3,36.79999924,
,,,2.0202999E-3,2.4000001,,,,,2.0202999E-3,36.00000000,
,,,2.0203199E-3,2.4000001,,,,,2.0203199E-3,36.00000000,
,,,2.0203399E-3,2.0000000,,,,,2.0203399E-3,35.20000076,
,,,2.0203600E-3,2.0000000,,,,,2.0203600E-3,35.20000076,
,,,2.0203800E-3,2.4000001,,,,,2.0203800E-3,34.40000153,
,,,2.0204000E-3,2.0000000,,,,,2.0204000E-3,33.60000229,
,,,2.0204200E-3,2.0000000,,,,,2.0204200E-3,34.40000153,
,,,2.0204401E-3,2.0000000,,,,,2.0204401E-3,33.60000229,
,,,2.0204601E-3,2.4000001,,,,,2.0204601E-3,33.60000229,
,,,2.0204799E-3,2.0000000,,,,,2.0204799E-3,32.79999924,
,,,2.0204999E-3,2.0000000,,,,,2.0204999E-3,32.79999924,
,,,2.0205199E-3,2.0000000,,,,,2.0205199E-3,32.79999924,
,,,2.0205399E-3,2.79999995,,,,,2.0205399E-3,32.00000000,
,,,2.0205600E-3,2.0000000,,,,,2.0205600E-3,31.20000076,
,,,2.0205800E-3,2.79999995,,,,,2.0205800E-3,31.20000076,
,,,2.0206000E-3,2.4000001,,,,,2.0206000E-3,31.20000076,
,,,2.0206200E-3,2.4000001,,,,,2.0206200E-3,31.20000076,
,,,2.0206401E-3,2.4000001,,,,,2.0206401E-3,30.39999962,
,,,2.0206601E-3,2.4000001,,,,,2.0206601E-3,30.39999962,
,,,2.0206799E-3,1.6000000,,,,,2.0206799E-3,28.80000114,
,,,2.0206999E-3,2.4000001,,,,,2.0206999E-3,28.80000114,
,,,2.0207199E-3,2.0000000,,,,,2.0207199E-3,28.80000114,
,,,2.0207400E-3,2.4000001,,,,,2.0207400E-3,28.80000114,
,,,2.0207600E-3,2.4000001,,,,,2.0207600E-3,28.00000000,
,,,2.0207800E-3,2.4000001,,,,,2.0207800E-3,28.00000000,
,,,2.0208000E-3,2.4000001,,,,,2.0208000E-3,28.00000000,
,,,2.0208200E-3,2.0000000,,,,,2.0208200E-3,27.20000076,
,,,2.0208401E-3,2.79999995,,,,,2.0208401E-3,26.39999962,
,,,2.0208601E-3,1.6000000,,,,,2.0208601E-3,26.39999962,
,,,2.0208799E-3,2.4000001,,,,,2.0208799E-3,26.39999962,
,,,2.0208999E-3,2.4000001,,,,,2.0208999E-3,26.39999962,
,,,2.0209199E-3,2.4000001,,,,,2.0209199E-3,25.60000038,
,,,2.0209400E-3,2.4000001,,,,,2.0209400E-3,24.80000114,
,,,2.0209600E-3,1.6000000,,,,,2.0209600E-3,25.60000038,
,,,2.0209800E-3,2.0000000,,,,,2.0209800E-3,24.80000114,
,,,2.0210000E-3,2.0000000,,,,,2.0210000E-3,24.80000114,
,,,2.0210200E-3,2.0000000,,,,,2.0210200E-3,23.20000076,
,,,2.0210401E-3,2.4000001,,,,,2.0210401E-3,24.00000000,
,,,2.0210601E-3,2.0000000,,,,,2.0210601E-3,23.20000076,
,,,2.0210799E-3,2.0000000,,,,,2.0210799E-3,23.20000076,
,,,2.0210999E-3,2.0000000,,,,,2.0210999E-3,23.20000076,
,,,2.0211199E-3,2.0000000,,,,,2.0211199E-3,21.60000038,
,,,2.0211400E-3,2.79999995,,,,,2.0211400E-3,22.39999962,
,,,2.0211600E-3,2.4000001,,,,,2.0211600E-3,21.60000038,
,,,2.0211800E-3,2.4000001,,,,,2.0211800E-3,20.0000000,
,,,2.0212000E-3,2.0000000,,,,,2.0212000E-3,20.80000114,
,,,2.0212200E-3,2.0000000,,,,,2.0212200E-3,20.0000000,
,,,2.0212401E-3,2.4000001,,,,,2.0212401E-3,20.0000000,
,,,2.0212601E-3,2.4000001,,,,,2.0212601E-3,19.2000008,
,,,2.0212799E-3,2.0000000,,,,,2.0212799E-3,20.0000000,
,,,2.0212999E-3,2.0000000,,,,,2.0212999E-3,19.2000008,
,,,2.0213199E-3,2.0000000,,,,,2.0213199E-3,18.3999996,
,,,2.0213400E-3,2.4000001,,,,,2.0213400E-3,18.3999996,
,,,2.0213600E-3,2.0000000,,,,,2.0213600E-3,17.6000004,
,,,2.0213800E-3,2.4000001,,,,,2.0213800E-3,16.8000011,
,,,2.0214000E-3,2.4000001,,,,,2.0214000E-3,16.8000011,
,,,2.0214200E-3,2.4000001,,,,,2.0214200E-3,16.8000011,
,,,2.0214401E-3,2.0000000,,,,,2.0214401E-3,16.0000000,
,,,2.0214601E-3,2.4000001,,,,,2.0214601E-3,16.0000000,
,,,2.0214799E-3,2.4000001,,,,,2.0214799E-3,16.0000000,
,,,2.0214999E-3,2.4000001,,,,,2.0214999E-3,15.1999998,
,,,2.0215199E-3,1.6000000,,,,,2.0215199E-3,15.1999998,
,,,2.0215400E-3,2.4000001,,,,,2.0215400E-3,14.4000006,
,,,2.0215600E-3,2.79999995,,,,,2.0215600E-3,13.6000004,
,,,2.0215800E-3,2.4000001,,,,,2.0215800E-3,13.6000004,
,,,2.0216000E-3,2.4000001,,,,,2.0216000E-3,13.6000004,
,,,2.0216201E-3,2.4000001,,,,,2.0216201E-3,12.8000002,
,,,2.0216401E-3,2.79999995,,,,,2.0216401E-3,12.8000002,
,,,2.0216601E-3,2.4000001,,,,,2.0216601E-3,12.0000000,
,,,2.0216799E-3,2.4000001,,,,,2.0216799E-3,12.8000002,
,,,2.0216999E-3,2.4000001,,,,,2.0216999E-3,12.8000002,
,,,2.0217199E-3,2.79999995,,,,,2.0217199E-3,11.1999998,
,,,2.0217400E-3,2.0000000,,,,,2.0217400E-3,11.1999998,
,,,2.0217600E-3,2.4000001,,,,,2.0217600E-3,10.4000006,
,,,2.0217800E-3,2.4000001,,,,,2.0217800E-3,10.4000006,
,,,2.0218000E-3,2.4000001,,,,,2.0218000E-3,9.600000381,
,,,2.0218201E-3,2.0000000,,,,,2.0218201E-3,9.600000381,
,,,2.0218401E-3,2.0000000,,,,,2.0218401E-3,9.600000381,
,,,2.0218601E-3,2.0000000,,,,,2.0218601E-3,9.600000381,
,,,2.0218799E-3,2.79999995,,,,,2.0218799E-3,8.800000191,
,,,2.0218999E-3,2.4000001,,,,,2.0218999E-3,8.000000000,
,,,2.0219199E-3,2.79999995,,,,,2.0219199E-3,8.000000000,
,,,2.0219400E-3,2.4000001,,,,,2.0219400E-3,7.20000029,
,,,2.0219600E-3,2.4000001,,,,,2.0219600E-3,7.20000029,
,,,2.0219800E-3,2.0000000,,,,,2.0219800E-3,8.000000000,
,,,2.0220000E-3,2.0000000,,,,,2.0220000E-3,5.59999990,
,,,2.0220201E-3,2.4000001,,,,,2.0220201E-3,6.40000010,
,,,2.0220401E-3,2.0000000,,,,,2.0220401E-3,6.40000010,
,,,2.0220601E-3,2.4000001,,,,,2.0220601E-3,5.59999990,
,,,2.0220799E-3,2.4000001,,,,,2.0220799E-3,5.59999990,
,,,2.0220999E-3,2.4000001,,,,,2.0220999E-3,5.59999990,
,,,2.0221199E-3,2.4000001,,,,,2.0221199E-3,4.80000019,
,,,2.0221400E-3,2.0000000,,,,,2.0221400E-3,3.20000005,
,,,2.0221600E-3,2.79999995,,,,,2.0221600E-3,3.20000005,
,,,2.0221800E-3,2.4000001,,,,,2.0221800E-3,4.00000000,
,,,2.0222000E-3,2.4000001,,,,,2.0222000E-3,4.00000000,
,,,2.0222201E-3,1.6000000,,,,,2.0222201E-3,2.4000001,
,,,2.0222401E-3,2.0000000,,,,,2.0222401E-3,2.4000001,
,,,2.0222601E-3,2.79999995,,,,,2.0222601E-3,1.6000000,
,,,2.0222799E-3,2.0000000,,,,,2.0222799E-3,1.6000000,
,,,2.0222999E-3,2.79999995,,,,,2.0222999E-3,800.000011921E-3,
,,,2.0223199E-3,2.4000001,,,,,2.0223199E-3,0.0,
,,,2.0223400E-3,2.4000001,,,,,2.0223400E-3,800.000011921E-3,
,,,2.0223600E-3,2.79999995,,,,,2.0223600E-3,0.0,
,,,2.0223800E-3,2.79999995,,,,,2.0223800E-3,0.0,
,,,2.0224000E-3,2.4000001,,,,,2.0224000E-3,0.0,
,,,2.0224201E-3,2.0000000,,,,,2.0224201E-3,-800.000011921E-3,
,,,2.0224401E-3,2.79999995,,,,,2.0224401E-3,-1.6000000,
,,,2.0224601E-3,2.4000001,,,,,2.0224601E-3,-2.4000001,
,,,2.0224799E-3,2.4000001,,,,,2.0224799E-3,-2.4000001,
,,,2.0224999E-3,2.4000001,,,,,2.0224999E-3,-1.6000000,
,,,2.0225199E-3,2.79999995,,,,,2.0225199E-3,-1.6000000,
,,,2.0225400E-3,2.4000001,,,,,2.0225400E-3,-3.20000005,
,,,2.0225600E-3,2.79999995,,,,,2.0225600E-3,-4.00000000,
,,,2.0225800E-3,2.79999995,,,,,2.0225800E-3,-4.80000019,
,,,2.0226000E-3,2.4000001,,,,,2.0226000E-3,-4.00000000,
,,,2.0226201E-3,2.4000001,,,,,2.0226201E-3,-4.00000000,
,,,2.0226401E-3,2.4000001,,,,,2.0226401E-3,-4.80000019,
,,,2.0226601E-3,2.4000001,,,,,2.0226601E-3,-4.80000019,
,,,2.0226799E-3,2.4000001,,,,,2.0226799E-3,-5.59999990,
,,,2.0226999E-3,2.4000001,,,,,2.0226999E-3,-5.59999990,
,,,2.0227199E-3,3.20000005,,,,,2.0227199E-3,-6.40000010,
,,,2.0227400E-3,2.4000001,,,,,2.0227400E-3,-7.20000029,
,,,2.0227600E-3,2.79999995,,,,,2.0227600E-3,-6.40000010,
,,,2.0227800E-3,2.4000001,,,,,2.0227800E-3,-8.000000000,
,,,2.0228000E-3,2.0000000,,,,,2.0228000E-3,-8.000000000,
,,,2.0228201E-3,2.79999995,,,,,2.0228201E-3,-8.800000191,
,,,2.0228401E-3,2.79999995,,,,,2.0228401E-3,-8.000000000,
,,,2.0228599E-3,2.79999995,,,,,2.0228599E-3,-8.000000000,
,,,2.0228799E-3,2.4000001,,,,,2.0228799E-3,-9.600000381,
,,,2.0228999E-3,2.4000001,,,,,2.0228999E-3,-9.600000381,
,,,2.0229199E-3,2.79999995,,,,,2.0229199E-3,-10.4000006,
,,,2.0229400E-3,2.4000001,,,,,2.0229400E-3,-10.4000006,
,,,2.0229600E-3,2.4000001,,,,,2.0229600E-3,-9.600000381,
,,,2.0229800E-3,2.4000001,,,,,2.0229800E-3,-12.0000000,
,,,2.0230000E-3,2.79999995,,,,,2.0230000E-3,-12.0000000,
,,,2.0230201E-3,2.4000001,,,,,2.0230201E-3,-11.1999998,
,,,2.0230401E-3,2.79999995,,,,,2.0230401E-3,-11.1999998,
,,,2.0230599E-3,2.4000001,,,,,2.0230599E-3,-12.0000000,
,,,2.0230799E-3,2.0000000,,,,,2.0230799E-3,-12.0000000,
,,,2.0230999E-3,2.4000001,,,,,2.0230999E-3,-12.8000002,
,,,2.0231199E-3,2.79999995,,,,,2.0231199E-3,-13.6000004,
,,,2.0231400E-3,3.20000005,,,,,2.0231400E-3,-13.6000004,
,,,2.0231600E-3,2.79999995,,,,,2.0231600E-3,-13.6000004,
,,,2.0231800E-3,2.4000001,,,,,2.0231800E-3,-14.4000006,
,,,2.0232000E-3,2.4000001,,,,,2.0232000E-3,-15.1999998,
,,,2.0232201E-3,2.79999995,,,,,2.0232201E-3,-15.1999998,
,,,2.0232401E-3,3.20000005,,,,,2.0232401E-3,-16.0000000,
,,,2.0232599E-3,2.79999995,,,,,2.0232599E-3,-15.1999998,
,,,2.0232799E-3,3.20000005,,,,,2.0232799E-3,-16.0000000,
,,,2.0232999E-3,2.79999995,,,,,2.0232999E-3,-16.0000000,
,,,2.0233199E-3,2.79999995,,,,,2.0233199E-3,-16.8000011,
,,,2.0233400E-3,2.79999995,,,,,2.0233400E-3,-17.6000004,
,,,2.0233600E-3,2.4000001,,,,,2.0233600E-3,-16.8000011,
,,,2.0233800E-3,3.20000005,,,,,2.0233800E-3,-17.6000004,
,,,2.0234000E-3,2.79999995,,,,,2.0234000E-3,-18.3999996,
,,,2.0234201E-3,2.79999995,,,,,2.0234201E-3,-18.3999996,
